{
    "_id": "OSPYSuckHhHl4Cr9",
    "data": {
        "attributes": {
            "ac": {
                "value": 20
            },
            "hardness": 12,
            "hasHealth": true,
            "hp": {
                "details": "",
                "max": 48,
                "temp": 0,
                "value": 48
            },
            "stealth": {
                "details": "<p>(trained)</p>",
                "value": 22
            }
        },
        "creatureType": "",
        "details": {
            "description": "<p>Large pressurized pipes connected to a trip wire are rigged to release a blast of steam on trespassers.</p>",
            "disable": "<p><span data-pf2-check=\"thievery\" data-pf2-traits=\"mechanical,trap,hazard\" data-pf2-label=\"Disconnect the trip wire DC\" data-pf2-dc=\"22\" data-pf2-show-dc=\"gm\">Thievery (trained)</span> to disconnect the trip wire or a <span data-pf2-check=\"crafting\" data-pf2-traits=\"mechanical,trap,hazard\" data-pf2-label=\"Reduce the pressure DC\" data-pf2-dc=\"24\" data-pf2-show-dc=\"gm\">Crafting (expert)</span> to carefully reduce the pressure and prevent the blast</p>",
            "isComplex": false,
            "level": {
                "value": 4
            },
            "reset": "",
            "routine": ""
        },
        "saves": {
            "fortitude": {
                "saveDetail": "",
                "value": 12
            },
            "reflex": {
                "saveDetail": "",
                "value": 12
            },
            "will": {
                "saveDetail": "",
                "value": 0
            }
        },
        "source": {
            "value": "Pathfinder Guns & Gears"
        },
        "statusEffects": [],
        "traits": {
            "ci": [],
            "di": {
                "custom": "",
                "selected": {},
                "value": []
            },
            "dr": [],
            "dv": [],
            "rarity": {
                "value": "uncommon"
            },
            "size": {
                "value": "med"
            },
            "traits": {
                "custom": "",
                "value": [
                    "mechanical",
                    "trap"
                ]
            }
        }
    },
    "effects": [],
    "flags": {},
    "img": "systems/pf2e/icons/default-icons/hazard.svg",
    "items": [
        {
            "_id": "SvqJNCRH2eI1jZk1",
            "data": {
                "actionCategory": {
                    "value": ""
                },
                "actionType": {
                    "value": "reaction"
                },
                "actions": {
                    "value": null
                },
                "description": {
                    "value": "<p><strong>Trigger</strong> The trip wire is pulled or severed, typically because a creature walked through the square with the trip wire</p>\n<p><strong>Effect</strong> Steam erupts from the pipes, dealing [[/r {3d6}[bludegeoning]]]{3d6 Bludgeoning Damage} and [[/r {3d6}[fire]]]{3d6 Fire Damage} (<span data-pf2-check=\"reflex\" data-pf2-traits=\"damaging-effect,mechanical,trap,hazard\" data-pf2-label=\"Avoid the erupting steam\" data-pf2-dc=\"24\" data-pf2-show-dc=\"gm\">basic Reflex</span>) to all creatures within 15 feet. Creatures that critically fail their save are knocked @Compendium[pf2e.conditionitems.Prone]{Prone}.</p>"
                },
                "requirements": {
                    "value": ""
                },
                "rules": [],
                "slug": null,
                "source": {
                    "value": ""
                },
                "traits": {
                    "custom": "",
                    "rarity": {
                        "value": "common"
                    },
                    "value": []
                },
                "trigger": {
                    "value": ""
                }
            },
            "effects": [],
            "flags": {},
            "img": "systems/pf2e/icons/actions/Reaction.webp",
            "name": "Steam Blast",
            "sort": 0,
            "type": "action"
        }
    ],
    "name": "Steam Vents",
    "token": {
        "disposition": 0,
        "height": 1,
        "img": "systems/pf2e/icons/default-icons/hazard.svg",
        "name": "Steam Vents",
        "width": 1
    },
    "type": "hazard"
}
