{
    "_id": "iaM6TjvijLCgiHeD",
    "data": {
        "boosts": {
            "0": {
                "value": [
                    "dex",
                    "wis"
                ]
            },
            "1": {
                "value": [
                    "cha",
                    "con",
                    "dex",
                    "int",
                    "str",
                    "wis"
                ]
            }
        },
        "description": {
            "value": "<p>You aren't from Breachill yourself-you might not even be from Isger or Avistan at all. You've lived a hard life, in any event. You have often had to make tough decisions, and have developed a knack for understanding how things work (and the best way to take them apart) that has helped you support yourself. Recently you discovered that an ancestor was from the town of Breachill and had a modest career as an adventurer. You can't help but wonder if you would have had an easier life if you'd grown up there instead, and have decided to seek out this small town to learn more about it.</p>\n<p>You've decided to respond to the Call for Heroes to follow in your ancestor's footsteps, either to honor their memory or accomplish the great deeds they did not.</p>\n<p>Choose two ability boosts. One must be to <strong>Dexterity</strong> or <strong>Wisdom</strong>, and one is a free ability boost.</p>\n<p>You're trained in the Thievery skill and the Engineering Lore skill. You gain the @Compendium[pf2e.feats-srd.Pickpocket]{Pickpocket} skill feat.</p>"
        },
        "items": {
            "g5mpz": {
                "id": "jDdOqFmZLwE4dblQ",
                "img": "systems/pf2e/icons/features/feats/feats.webp",
                "level": "1",
                "name": "Pickpocket",
                "pack": "pf2e.feats-srd"
            }
        },
        "rules": [],
        "source": {
            "value": "Pathfinder: Age of Ashes Player's Guide"
        },
        "trainedLore": "Engineering Lore",
        "trainedSkills": {
            "value": [
                "thi"
            ]
        },
        "traits": {
            "custom": "",
            "rarity": {
                "value": "common"
            },
            "value": []
        }
    },
    "effects": [],
    "flags": {},
    "img": "systems/pf2e/icons/default-icons/background.svg",
    "name": "Returning Descendant",
    "type": "background"
}
