{
    "_id": "5SVttGODx1TkyhTU",
    "data": {
        "MAP": {
            "value": ""
        },
        "baseItem": "clan-pistol",
        "bonus": {
            "value": 0
        },
        "bonusDamage": {
            "value": 0
        },
        "brokenThreshold": {
            "value": 0
        },
        "bulkCapacity": {
            "value": ""
        },
        "category": "martial",
        "collapsed": {
            "value": false
        },
        "containerId": {
            "value": null
        },
        "damage": {
            "damageType": "piercing",
            "dice": 1,
            "die": "d6",
            "value": ""
        },
        "description": {
            "value": "<p>This charred and blackened <em>+2 striking clan pistol</em> is coated in a thick layer of soot and grease and its retort sounds uncomfortably like a scream. Clearly at dangerous risk of misfire, this weapon claimed the life of its dwarven crafter shortly after completion and is haunted by that pained spirit. This ever-burning spirit keeps the firearm warm to the touch, regardless of surrounding environment.</p>\n<p>No matter how much you clean and maintain it, an <em>immolation clan pistol</em> is always at risk of a misfire, and the flat check to avoid a misfire is DC 7 rather than DC 5. On a misfire, an immolation hand cannon releases a blast of concentrated fire, dealing you [[/r {2d6}[fire]]]{2d6 fire damage} and [[/r {2d6}[persistent,fire]]]{2d6} @Compendium[pf2e.conditionitems.Persistent Damage]{Persistent fire Damage}.</p>\n<p>An <em>immolation clan pistol</em> fuses with you when you first fire it. While you're fused with the <em>immolation clan pistol</em>, the pained spirit haunts your dreams, forcing you to relive its death each night. If you fired the <em>immolation clan pistol</em> that day, you are unharmed by these dreams. If you didn't fire the <em>immolation clan pistol</em> that day, but still possess it, you awaken @Compendium[pf2e.conditionitems.Fatigued]{Fatigued}. If you no longer possess the <em>immolation clan pistol</em>, the spirit of its dwarven smith is enraged by your neglect; you awaken fatigued and aflame, taking [[/r {2d6}[persistent,fire]]]{2d6} @Compendium[pf2e.conditionitems.Persistent Damage]{Persistent fire Damage}.</p>\n<p>Regardless, these nightmares possess clues to the spirit's life. If you take the immolation hand cannon to the site of its creation and repair it with tools belonging to the tormented spirit, you might be able to break the curse. If the spirit is set free, this weapon becomes a +2 greater striking flaming hand cannon with no other abilities or curses.</p>\n<hr />\n<p><strong>Activate</strong> <span class=\"pf2-icon\">2</span> command, Interact;</p>\n<p><strong>Frequency</strong> once per day;</p>\n<p><strong>Effect</strong> You allow yourself to become partially possessed by the immolated spirit bound to the hand cannon. For 1 minute, you look like a flaming corpse. During this time, you gain a +2 status bonus to Intimidation checks and the <em>immolation hand cannon</em> becomes a <em>+2 striking flaming hand cannon</em>.</p>\n<p>@Compendium[pf2e.equipment-effects.Effect: Immolation Clan Pistol]{Effect: Immolation Clan Pistol}</p>"
        },
        "equipped": {
            "value": false
        },
        "equippedBulk": {
            "value": ""
        },
        "group": "firearm",
        "hands": {
            "value": false
        },
        "hardness": {
            "value": 0
        },
        "hp": {
            "value": 0
        },
        "identification": {
            "misidentified": {},
            "status": "identified",
            "unidentified": {
                "data": {
                    "description": {
                        "value": ""
                    }
                },
                "img": "",
                "name": ""
            }
        },
        "invested": {
            "value": null
        },
        "level": {
            "value": 10
        },
        "maxHp": {
            "value": 0
        },
        "negateBulk": {
            "value": "0"
        },
        "potencyRune": {
            "value": 2
        },
        "preciousMaterial": {
            "value": null
        },
        "preciousMaterialGrade": {
            "value": null
        },
        "price": {
            "value": "1000 gp"
        },
        "property1": {
            "critDamage": "",
            "critDamageType": "",
            "critDice": 0,
            "critDie": "",
            "criticalConditionType": "",
            "criticalConditionValue": null,
            "damageType": "",
            "dice": 0,
            "die": "",
            "strikeConditionType": "",
            "strikeConditionValue": null,
            "value": ""
        },
        "propertyRune1": {
            "value": null
        },
        "propertyRune2": {
            "value": null
        },
        "propertyRune3": {
            "value": null
        },
        "propertyRune4": {
            "value": null
        },
        "quantity": {
            "value": 1
        },
        "range": 80,
        "reload": {
            "value": "1"
        },
        "rules": [],
        "size": {
            "value": "med"
        },
        "source": {
            "value": "Pathfinder Guns & Gears"
        },
        "specific": {
            "material": null,
            "price": "1000 gp",
            "runes": {
                "potency": 2,
                "striking": "striking"
            },
            "value": true
        },
        "splashDamage": {
            "value": 0
        },
        "stackGroup": {
            "value": ""
        },
        "strikingRune": {
            "value": "striking"
        },
        "traits": {
            "custom": "",
            "rarity": {
                "value": "rare"
            },
            "value": [
                "concussive",
                "cursed",
                "dwarf",
                "evocation",
                "fatal-d10",
                "fire",
                "magical"
            ]
        },
        "usage": {
            "value": "held-in-one-hand"
        },
        "weight": {
            "value": "1"
        }
    },
    "effects": [],
    "flags": {},
    "img": "systems/pf2e/icons/default-icons/weapon.svg",
    "name": "Immolation Clan Pistol",
    "type": "weapon"
}
