{
    "_id": "8E7qXnNOSm51UwsG",
    "data": {
        "baseItem": null,
        "brokenThreshold": {
            "value": 0
        },
        "bulkCapacity": {
            "value": ""
        },
        "collapsed": {
            "value": false
        },
        "containerId": {
            "value": ""
        },
        "description": {
            "value": "<p>This ornate headgear comes in many different shapes and sizes, though most are elaborately decorated with motifs of the deity whose honor in which it was made. The miter brings you spiritually closer to your deity's servitors, granting you a +2 item bonus to Religion checks.</p>\n<p><strong>Activate</strong> 1 minute (command)</p>\n<p><strong>Frequency</strong> once per week</p>\n<p><strong>Effect</strong> You chant for a minute about a task at hand for the coming week to cast a 4th-level <em>@Compendium[pf2e.spells-srd.Read Omens]{Read Omens}</em> spell that grants you cryptic but useful advice.</p>\n<hr />\n<p>Automatically applied effects:</p>\n<ul>\n<li>+2 item bonus to Religion checks</li>\n</ul>"
        },
        "equipped": {
            "value": false
        },
        "equippedBulk": {
            "value": ""
        },
        "hardness": {
            "value": 0
        },
        "hp": {
            "value": 0
        },
        "identification": {
            "misidentified": {},
            "status": "identified",
            "unidentified": {
                "data": {
                    "description": {
                        "value": ""
                    }
                },
                "img": "",
                "name": ""
            }
        },
        "invested": {
            "value": false
        },
        "level": {
            "value": 10
        },
        "maxHp": {
            "value": 0
        },
        "negateBulk": {
            "value": ""
        },
        "preciousMaterial": {
            "value": ""
        },
        "preciousMaterialGrade": {
            "value": ""
        },
        "price": {
            "value": "800 gp"
        },
        "quantity": {
            "value": 1
        },
        "rules": [
            {
                "key": "FlatModifier",
                "selector": "religion",
                "type": "item",
                "value": 2
            }
        ],
        "size": {
            "value": "med"
        },
        "source": {
            "value": "Pathfinder Lost Omens: Gods & Magic"
        },
        "stackGroup": {
            "value": ""
        },
        "traits": {
            "custom": "",
            "rarity": {
                "value": "uncommon"
            },
            "value": [
                "divination",
                "invested",
                "magical"
            ]
        },
        "usage": {
            "value": "held-in-one-hand"
        },
        "weight": {
            "value": "L"
        }
    },
    "effects": [],
    "flags": {},
    "img": "systems/pf2e/icons/equipment/worn-items/other-worn-items/miter-of-communion.webp",
    "name": "Miter of Communion",
    "type": "equipment"
}
