{
    "_id": "teSZWABjhXM4EKXM",
    "data": {
        "baseItem": null,
        "brokenThreshold": {
            "value": 0
        },
        "bulkCapacity": {
            "value": ""
        },
        "collapsed": {
            "value": false
        },
        "containerId": {
            "value": null
        },
        "description": {
            "value": "<p>A <em>quick wig</em> magically conceals your natural hair while worn, eliminating the need to braid or pin your hair beneath it. In addition, your facial hair and eyebrows change color to match the wig while you wear it. When used as part of a Deception check to Impersonate to go unrecognized by changing your hair, you no longer require a disguise kit, you gain a +1 item bonus on the check, and you reduce the time to create the disguise from 10 minutes to 5 minutes. You still need a disguise kit and the full time if you're using cosmetics and other props to change other aspects of your disguise or Impersonating a specific person, and the wig only provides its item bonus when Impersonating a specific person if that person's hair color and style match the wig's. <em>Quick wigs</em> detangle themselves while not in use.</p>"
        },
        "equipped": {
            "value": false
        },
        "equippedBulk": {
            "value": ""
        },
        "hardness": {
            "value": 0
        },
        "hp": {
            "value": 0
        },
        "identification": {
            "misidentified": {},
            "status": "identified",
            "unidentified": {
                "data": {
                    "description": {
                        "value": ""
                    }
                },
                "img": "",
                "name": ""
            }
        },
        "invested": {
            "value": null
        },
        "level": {
            "value": 2
        },
        "maxHp": {
            "value": 0
        },
        "negateBulk": {
            "value": "0"
        },
        "preciousMaterial": {
            "value": null
        },
        "preciousMaterialGrade": {
            "value": null
        },
        "price": {
            "value": "30 gp"
        },
        "quantity": {
            "value": 1
        },
        "rules": [
            {
                "key": "FlatModifier",
                "label": "Quick Wig Impersonation",
                "predicate": {
                    "all": [
                        "action:impersonate"
                    ]
                },
                "selector": "deception",
                "type": "item",
                "value": 1
            }
        ],
        "size": {
            "value": "med"
        },
        "source": {
            "value": "Pathfinder Lost Omens: The Grand Bazaar"
        },
        "stackGroup": {
            "value": ""
        },
        "traits": {
            "custom": "",
            "rarity": {
                "value": "uncommon"
            },
            "value": [
                "illusion",
                "invested",
                "magical"
            ]
        },
        "usage": {
            "value": "wornheadwear"
        },
        "weight": {
            "value": "L"
        }
    },
    "effects": [],
    "flags": {},
    "img": "systems/pf2e/icons/default-icons/equipment.svg",
    "name": "Quick Wig",
    "type": "equipment"
}
