{
    "_id": "KekfZ6eRzoZVRemw",
    "data": {
        "baseItem": null,
        "brokenThreshold": {
            "value": 0
        },
        "bulkCapacity": {
            "value": ""
        },
        "collapsed": {
            "value": false
        },
        "containerId": {
            "value": null
        },
        "description": {
            "value": "<p>You've learned to bind some of your feathers together into a fan to focus your ancestral magic. You (and only you) can use the <em>tengu feather fan</em> to cast tengu magic. If your fan is lost or destroyed, you can create a replacement during your daily preparations; if you do so, your previous fan falls apart into mundane feathers. Further feats might grant you additional activations of your <em>tengu feather fan</em>, but you can never have more than three activations per day, no matter how many such feats you have. The DC for spells you cast with your <em>tengu feather fan</em> is your class DC or spell DC, whichever is higher.</p>\n<p>You can cast the 1st-level <em>@Compendium[pf2e.spells-srd.Gust of Wind]{Gust of Wind}</em> spell by activating your <em>tengu feather fan</em>.</p>\n<hr />\n<p><strong>Activate</strong> Interact;</p>\n<p><strong>Frequency</strong> once per day;</p>\n<p><strong>Effect</strong> You cast one of the spells contained in your <em>tengu feather fan</em>. Activating the fan takes the spell's normal number of actions. You can also Activate the fan to cast a cantrip you've gained from a heritage or ancestry feat; this activation doesn't count against the fan's uses per day.</p>"
        },
        "equipped": {
            "value": false
        },
        "equippedBulk": {
            "value": ""
        },
        "hardness": {
            "value": 0
        },
        "hp": {
            "value": 0
        },
        "identification": {
            "misidentified": {},
            "status": "identified",
            "unidentified": {
                "data": {
                    "description": {
                        "value": ""
                    }
                },
                "img": "",
                "name": ""
            }
        },
        "invested": {
            "value": null
        },
        "level": {
            "value": 5
        },
        "maxHp": {
            "value": 0
        },
        "negateBulk": {
            "value": "0"
        },
        "preciousMaterial": {
            "value": null
        },
        "preciousMaterialGrade": {
            "value": null
        },
        "price": {
            "value": "0 gp"
        },
        "quantity": {
            "value": 1
        },
        "rules": [],
        "size": {
            "value": "med"
        },
        "source": {
            "value": "Pathfinder Lost Omens: Ancestry Guide"
        },
        "stackGroup": {
            "value": ""
        },
        "traits": {
            "custom": "",
            "rarity": {
                "value": "unique"
            },
            "value": [
                "evocation",
                "primal"
            ]
        },
        "usage": {
            "value": "held-in-one-hand"
        },
        "weight": {
            "value": "L"
        }
    },
    "effects": [],
    "flags": {},
    "img": "systems/pf2e/icons/default-icons/equipment.svg",
    "name": "Tengu Feather Fan",
    "type": "equipment"
}
