{
    "_id": "IuGydh0En8LbfnWo",
    "data": {
        "MAP": {
            "value": ""
        },
        "baseItem": "alchemical-bomb",
        "bonus": {
            "value": 3
        },
        "bonusDamage": {
            "value": 0
        },
        "brokenThreshold": {
            "value": 0
        },
        "bulkCapacity": {
            "value": ""
        },
        "category": "martial",
        "collapsed": {
            "value": false
        },
        "containerId": {
            "value": ""
        },
        "damage": {
            "damageType": "sonic",
            "dice": 4,
            "die": "d4",
            "value": ""
        },
        "description": {
            "value": "<p>When this stone hits a creature or a hard surface, it explodes with a deafening bang. A thunderstone deals the listed sonic damage and sonic splash damage, and each creature within 10 feet of the space in which the stone exploded must succeed at a <span data-pf2-check=\"fortitude\" data-pf2-traits=\"alchemical,bomb,sonic,splash\" data-pf2-label=\"Major Thunderstone DC\" data-pf2-dc=\"36\" data-pf2-show-dc=\"all\">Fortitude</span> saving throw with the listed DC or be @Compendium[pf2e.conditionitems.Deafened]{Deafened} until the end of its next turn. Many types of thunderstone grant an item bonus to attack rolls.</p>\n<p>You gain a +3 item bonus to attack rolls. The bomb deals 4d4 sonic damage and 4 sonic splash damage, and the DC is 36.</p>"
        },
        "equipped": {
            "value": false
        },
        "equippedBulk": {
            "value": ""
        },
        "group": "bomb",
        "hands": {
            "value": ""
        },
        "hardness": {
            "value": 0
        },
        "hp": {
            "value": 0
        },
        "identification": {
            "misidentified": {},
            "status": "identified",
            "unidentified": {
                "data": {
                    "description": {
                        "value": ""
                    }
                },
                "img": "",
                "name": ""
            }
        },
        "invested": {
            "value": false
        },
        "level": {
            "value": 17
        },
        "maxHp": {
            "value": 0
        },
        "negateBulk": {
            "value": "0"
        },
        "potencyRune": {
            "value": null
        },
        "preciousMaterial": {
            "value": ""
        },
        "preciousMaterialGrade": {
            "value": ""
        },
        "price": {
            "value": "2,500 gp"
        },
        "property1": {
            "critDamage": "",
            "critDamageType": "",
            "critDice": null,
            "critDie": "",
            "criticalConditionType": "",
            "criticalConditionValue": null,
            "damageType": "",
            "dice": null,
            "die": "",
            "strikeConditionType": "",
            "strikeConditionValue": null,
            "value": ""
        },
        "propertyRune1": {
            "value": ""
        },
        "propertyRune2": {
            "value": ""
        },
        "propertyRune3": {
            "value": ""
        },
        "propertyRune4": {
            "value": ""
        },
        "quantity": {
            "value": 1
        },
        "range": 20,
        "reload": {
            "value": ""
        },
        "rules": [
            {
                "key": "Note",
                "selector": "{item|_id}-damage",
                "text": "<p class='compact-text'><strong>Effect:</strong> All creatures within 10 feet must succeed at a <span data-pf2-saving-throw=\"fortitude\" data-pf2-traits=\"alchemical,bomb,sonic,splash\" data-pf2-label=\"Major Thunderstone DC\" data-pf2-dc=\"36\" data-pf2-show-dc=\"all\">Fortitude</span> save or become @Compendium[pf2e.conditionitems.Deafened]{Deafened} for 1 round.</p>"
            }
        ],
        "size": {
            "value": "med"
        },
        "source": {
            "value": "Pathfinder Core Rulebook"
        },
        "splashDamage": {
            "value": 4
        },
        "stackGroup": {
            "value": ""
        },
        "strikingRune": {
            "value": ""
        },
        "traits": {
            "custom": "",
            "rarity": {
                "value": "common"
            },
            "value": [
                "alchemical",
                "bomb",
                "consumable",
                "sonic",
                "splash"
            ]
        },
        "usage": {
            "value": "held-in-one-hand"
        },
        "weight": {
            "value": "L"
        }
    },
    "effects": [],
    "flags": {},
    "img": "systems/pf2e/icons/equipment/alchemical-items/alchemical-bombs/thunderstone.webp",
    "name": "Thunderstone (Major)",
    "type": "weapon"
}
