{
    "_id": "KLWjINVkWwJlOZEX",
    "data": {
        "baseItem": null,
        "brokenThreshold": {
            "value": 0
        },
        "bulkCapacity": {
            "value": ""
        },
        "collapsed": {
            "value": false
        },
        "containerId": {
            "value": ""
        },
        "description": {
            "value": "<p>If you put this large opalescent conch shell to your ear, you can hear the sound of the roaring sea crashing against the shore.</p>\n<p><strong>Activate</strong> <span class=\"pf2-icon\">A</span> Interact (auditory)</p>\n<p><strong>Effect</strong> You can raise the conch to your lips and blow into it, letting out a long, rumbling note. For the next minute, you and all allies who were within 30 feet of you when you activated the conch gain a +2 item bonus to Athletics checks to Swim and can breathe under water.</p>\n<p>@Compendium[pf2e.equipment-effects.Effect: Triton's Conch]{Effect: Triton's Conch}</p>"
        },
        "equipped": {
            "value": false
        },
        "equippedBulk": {
            "value": ""
        },
        "hardness": {
            "value": 0
        },
        "hp": {
            "value": 0
        },
        "identification": {
            "misidentified": {},
            "status": "identified",
            "unidentified": {
                "data": {
                    "description": {
                        "value": ""
                    }
                },
                "img": "",
                "name": ""
            }
        },
        "invested": {
            "value": false
        },
        "level": {
            "value": 9
        },
        "maxHp": {
            "value": 0
        },
        "negateBulk": {
            "value": "0"
        },
        "preciousMaterial": {
            "value": ""
        },
        "preciousMaterialGrade": {
            "value": ""
        },
        "price": {
            "value": "640 gp"
        },
        "quantity": {
            "value": 1
        },
        "rules": [],
        "size": {
            "value": "med"
        },
        "source": {
            "value": "Pathfinder Core Rulebook"
        },
        "stackGroup": {
            "value": ""
        },
        "traits": {
            "custom": "",
            "rarity": {
                "value": "common"
            },
            "value": [
                "magical",
                "transmutation"
            ]
        },
        "usage": {
            "value": "held-in-one-hand"
        },
        "weight": {
            "value": "L"
        }
    },
    "effects": [],
    "flags": {},
    "img": "systems/pf2e/icons/equipment/held-items/tritons-conch.webp",
    "name": "Triton's Conch",
    "type": "equipment"
}
