{
    "_id": "LmveO9fSuEnkMKAH",
    "data": {
        "baseItem": null,
        "brokenThreshold": {
            "value": 0
        },
        "bulkCapacity": {
            "value": ""
        },
        "collapsed": {
            "value": false
        },
        "containerId": {
            "value": ""
        },
        "description": {
            "value": "<p>This bulky leather harness has four pockets across the chest. The pockets contain a set of @Compendium[pf2e.equipment-srd.Thieves' Tools (Infiltrator)]{Thieves' Tools (Infiltrator)}, @Compendium[pf2e.equipment-srd.Thieves' Tools (Infiltrator Picks)]{Thieves' Tools (Infiltrator Picks)}, a @Compendium[pf2e.equipment-srd.Crowbar (Levered)]{Crowbar (Levered)}, and a glass cutter. These items are magically bound to the harness; if they are more than 1 foot away from you, they disappear, then reappear in the harness at the next sunset. Broken or destroyed items similarly reappear, restored, in their proper pockets at sunset.</p>\n<p><strong>Activate</strong><span class=\"pf2-icon\">2 </span>Interact</p>\n<p><strong>Effect</strong> You cinch the harness to prepare for mischief. You gain a +1 item bonus to Stealth checks and a +10-foot item bonus to your Speed for 1 minute.</p>\n<p>@Compendium[pf2e.equipment-effects.Effect: Vaultbreaker's Harness]{Effect: Vaultbreaker's Harness}</p>"
        },
        "equipped": {
            "value": false
        },
        "equippedBulk": {
            "value": ""
        },
        "hardness": {
            "value": 0
        },
        "hp": {
            "value": 0
        },
        "identification": {
            "misidentified": {},
            "status": "identified",
            "unidentified": {
                "data": {
                    "description": {
                        "value": ""
                    }
                },
                "img": "",
                "name": ""
            }
        },
        "invested": {
            "value": false
        },
        "level": {
            "value": 6
        },
        "maxHp": {
            "value": 0
        },
        "negateBulk": {
            "value": "0"
        },
        "preciousMaterial": {
            "value": ""
        },
        "preciousMaterialGrade": {
            "value": ""
        },
        "price": {
            "value": "230 gp"
        },
        "quantity": {
            "value": 1
        },
        "rules": [],
        "size": {
            "value": "med"
        },
        "source": {
            "value": "Pathfinder #158: Sixty Feet Under"
        },
        "stackGroup": {
            "value": ""
        },
        "traits": {
            "custom": "",
            "rarity": {
                "value": "uncommon"
            },
            "value": [
                "invested",
                "magical",
                "transmutation"
            ]
        },
        "usage": {
            "value": "wornbackpack"
        },
        "weight": {
            "value": "1"
        }
    },
    "effects": [],
    "flags": {},
    "img": "systems/pf2e/icons/equipment/worn-items/other-worn-items/vaultbreakers-harness.webp",
    "name": "Vaultbreaker's Harness",
    "type": "equipment"
}
