{
    "_id": "WGBL7l5DatQnszg7",
    "content": "<table class=\"pf2-table\">\n<thead>\n<tr>\n<th>\n<h3><strong>Name</strong></h3>\n</th>\n<th>\n<h3><strong>Crit Effect</strong></h3>\n</th>\n<th>\n<h3><strong>Type</strong></h3>\n</th>\n</tr>\n</thead>\n<tbody>\n<tr>\n<td>Bonk!</td>\n<td>You are stunned 2.</td>\n<td>\n<h3>Melee</h3>\n</td>\n</tr>\n<tr>\n<td>Shot your Foot</td>\n<td>Until healed, you are clumsy 2 and take a -5-foot circumstance penalty to your land speed.</td>\n<td>\n<h3>Ranged</h3>\n</td>\n</tr>\n<tr>\n<td>Overexertion</td>\n<td>You are fatigued.</td>\n<td>\n<h3>Unarmed</h3>\n</td>\n</tr>\n<tr>\n<td>Side Effect</td>\n<td>You are sickened 1. You are also stupefied 2  until healed.</td>\n<td>\n<h3>Spell</h3>\n</td>\n</tr>\n</tbody>\n</table>\n<h3 style=\"text-align: left;\"> </h3>",
    "flags": {},
    "name": "Critical Fumble Deck #35",
    "permission": {
        "default": 0
    }
}
