{
    "_id": "EeM0Czaep7G5ZSh5",
    "data": {
        "actionCategory": {
            "value": "offensive"
        },
        "actionType": {
            "value": "free"
        },
        "actions": {
            "value": null
        },
        "description": {
            "value": "<p><strong>Trigger</strong> You roll initiative.</p>\n<hr />\n<p>You react to trouble with lightning speed, positioning yourself just right. You gain a +2 circumstance bonus to your initiative roll, and you can Interact to draw a one-handed firearm or one-handed crossbow. As your first action on your first turn, you can Step up to 10 feet as a free action.</p>"
        },
        "requirements": {
            "value": ""
        },
        "rules": [
            {
                "key": "FlatModifier",
                "predicate": {
                    "all": [
                        "ten-paces"
                    ]
                },
                "selector": "initiative",
                "type": "circumstance",
                "value": 2
            },
            {
                "key": "ToggleProperty",
                "property": "flags.pf2e.rollOptions.all.ten-paces"
            }
        ],
        "source": {
            "value": "Pathfinder Guns & Gears"
        },
        "traits": {
            "custom": "",
            "rarity": {
                "value": "common"
            },
            "value": [
                "gunslinger"
            ]
        },
        "trigger": {
            "value": ""
        }
    },
    "effects": [],
    "flags": {},
    "img": "systems/pf2e/icons/actions/FreeAction.webp",
    "name": "Ten Paces",
    "type": "action"
}
