{
    "_id": "YQ6IT8DgEpqvOREx",
    "content": "<p><strong>Deities</strong> @Compendium[pf2e.deities.Achaekek]{Achaekek}, @Compendium[pf2e.deities.Alglenweis]{Alglenweis}, @Compendium[pf2e.deities.Angazhan]{Angazhan}, @Compendium[pf2e.deities.Ashukharma]{Ashukharma}, @Compendium[pf2e.deities.Ayrzul]{Ayrzul}, @Compendium[pf2e.deities.Baphomet]{Baphomet}, @Compendium[pf2e.deities.Cayden Cailean]{Cayden Cailean}, @Compendium[pf2e.deities.Dranngvit]{Dranngvit}, @Compendium[pf2e.deities.Eiseth]{Eiseth}, @Compendium[pf2e.deities.Falayna]{Falayna}, @Compendium[pf2e.deities.General Susumu]{General Susumu}, @Compendium[pf2e.deities.Geryon]{Geryon}, @Compendium[pf2e.deities.Gogunta]{Gogunta}, @Compendium[pf2e.deities.Gorum]{Gorum}, @Compendium[pf2e.deities.Green Man]{Green Man}, @Compendium[pf2e.deities.Imbrex]{Imbrex}, @Compendium[pf2e.deities.Iomedae]{Iomedae}, @Compendium[pf2e.deities.Irori]{Irori}, @Compendium[pf2e.deities.Jaidi]{Jaidi}, @Compendium[pf2e.deities.Kazutal]{Kazutal}, @Compendium[pf2e.deities.Kols]{Kols}, @Compendium[pf2e.deities.Kostchtchie]{Kostchtchie}, @Compendium[pf2e.deities.Kurgess]{Kurgess}, @Compendium[pf2e.deities.Lamashtu]{Lamashtu}, @Compendium[pf2e.deities.Moloch]{Moloch}, @Compendium[pf2e.deities.Ragdya]{Ragdya}, @Compendium[pf2e.deities.Raumya]{Raumya}, @Compendium[pf2e.deities.Sekhmet]{Sekhmet}, @Compendium[pf2e.deities.Sobek]{Sobek}, @Compendium[pf2e.deities.Sun Wukong]{Sun Wukong}, @Compendium[pf2e.deities.Szuriel]{Szuriel}, @Compendium[pf2e.deities.Trudd]{Trudd}, @Compendium[pf2e.deities.Urgathoa]{Urgathoa}, @Compendium[pf2e.deities.Yamatsumi]{Yamatsumi}, @Compendium[pf2e.deities.Ydersius]{Ydersius}, @Compendium[pf2e.deities.Zevgavizeb]{Zevgavizeb}</p><p><strong>Domain Spell</strong> @Compendium[pf2e.spells-srd.Athletic Rush]{Athletic Rush}; <strong>Advanced Domain Spell</strong> @Compendium[pf2e.spells-srd.Enduring Might]{Enduring Might}</p><p><span id=\"ctl00_MainContent_DetailedOutput\">Your physical power is bolstered by divine strength.</span></p><p></p>",
    "flags": {},
    "name": "Might Domain",
    "permission": {
        "default": 0
    }
}
