{
    "_id": "pWbNhfBiskV4n58a",
    "data": {
        "actionCategory": {
            "value": "offensive"
        },
        "actionType": {
            "value": "action"
        },
        "actions": {
            "value": 2
        },
        "description": {
            "value": "<p><strong>Requirements</strong> You're wielding a loaded magical firearm or crossbow.</p>\n<hr />\n<p>You infuse your entire being into a single shot, merging your body into the blast and enabling you to travel the same path as your bolt or bullet. Strike a creature with the required weapon. On a success, if the target was within 120 feet, you and all your gear are teleported to an open space of your choice within 10 feet of the target.</p>"
        },
        "featType": {
            "value": "archetype"
        },
        "level": {
            "value": 18
        },
        "location": "",
        "prerequisites": {
            "value": [
                {
                    "value": "Spellshot Dedication"
                },
                {
                    "value": "master in Arcana"
                }
            ]
        },
        "rules": [],
        "source": {
            "value": ""
        },
        "traits": {
            "custom": "",
            "rarity": {
                "value": "common"
            },
            "value": [
                "archetype",
                "conjuration",
                "teleportation"
            ]
        }
    },
    "effects": [],
    "flags": {},
    "img": "systems/pf2e/icons/default-icons/feats.webp",
    "name": "Black Powder Embodiment",
    "type": "feat"
}
