{
    "_id": "JOq4Xe49A04YycRz",
    "data": {
        "actionCategory": {
            "value": ""
        },
        "actionType": {
            "value": "action"
        },
        "actions": {
            "value": 1
        },
        "description": {
            "value": "<p>Your composition takes the form of a call-and-response chant, which lets your allies continue the effect without you.</p>\n<p>If your next action is to cast a composition cantrip with a duration of 1 round, it becomes a call.</p>\n<p>While the spell is active, one ally affected by the spell can respond to your call as a single action that has the auditory and concentrate traits to extend the spell's duration by 1 round. Only one ally can respond to a given call, and responding to the ally's response has no additional effect.</p>"
        },
        "featType": {
            "value": "class"
        },
        "level": {
            "value": 8
        },
        "prerequisites": {
            "value": []
        },
        "rules": [],
        "source": {
            "value": "Pathfinder Advanced Player's Guide"
        },
        "traits": {
            "custom": "",
            "rarity": {
                "value": "common"
            },
            "value": [
                "auditory",
                "bard",
                "concentrate",
                "metamagic"
            ]
        }
    },
    "effects": [],
    "flags": {},
    "img": "systems/pf2e/icons/features/feats/feats.webp",
    "name": "Call And Response",
    "type": "feat"
}
