{
    "_id": "HlqAdfxmcd9gdgHa",
    "data": {
        "actionCategory": {
            "value": ""
        },
        "actionType": {
            "value": "passive"
        },
        "actions": {
            "value": null
        },
        "description": {
            "value": "<p><strong>Requirements</strong> You gained a terrain attunement benefit this turn, and it matched the terrain you're in.</p>\n<hr />\n<p>You pull strength from the surrounding terrain. You gain temporary Hit Points equal to your level. They last for 1 round. If you previously gained the plains terrain attunement effect this turn, combine the temporary Hit Points together.</p>"
        },
        "featType": {
            "value": "archetype"
        },
        "level": {
            "value": 10
        },
        "location": "",
        "prerequisites": {
            "value": [
                {
                    "value": "Geomancer Dedication"
                },
                {
                    "value": "expert in Nature"
                }
            ]
        },
        "rules": [],
        "source": {
            "value": ""
        },
        "traits": {
            "custom": "",
            "rarity": {
                "value": "common"
            },
            "value": [
                "archetype"
            ]
        }
    },
    "effects": [],
    "flags": {},
    "img": "systems/pf2e/icons/default-icons/feat.svg",
    "name": "Draw From the Land",
    "type": "feat"
}
