{
    "_id": "XGZUjc9I3sjfniDg",
    "data": {
        "actionCategory": {
            "value": ""
        },
        "actionType": {
            "value": "passive"
        },
        "actions": {
            "value": null
        },
        "description": {
            "value": "<p>A second energy dwells in your eidolon. Choose an additional energy damage type. Your unarmed attack that deals energy damage gains the versatile trait for the second energy damage type, and your eidolon gains resistance to the second type of energy damage equal to half your level.</p>"
        },
        "featType": {
            "value": "class"
        },
        "level": {
            "value": 4
        },
        "location": "",
        "prerequisites": {
            "value": [
                {
                    "value": "Energy Heart"
                }
            ]
        },
        "rules": [],
        "source": {
            "value": ""
        },
        "traits": {
            "custom": "",
            "rarity": {
                "value": "common"
            },
            "value": [
                "evolution",
                "summoner"
            ]
        }
    },
    "effects": [],
    "flags": {},
    "img": "systems/pf2e/icons/default-icons/feat.svg",
    "name": "Dual Energy Heart",
    "type": "feat"
}
