{
    "_id": "flRXjabqedf6GjuU",
    "data": {
        "actionCategory": {
            "value": ""
        },
        "actionType": {
            "value": "passive"
        },
        "actions": {
            "value": null
        },
        "description": {
            "value": "<p>When you perform sleight of hand, you fold space so that objects really do disappear. You create a small extradimensional space somewhere within in your clothing that can hold up to 5 Bulk worth of objects. The space functions as a bag of holding, but can hold only up to 5 Bulk, has no Bulk of its own, and can be Interacted with using only one hand.</p>\n<p>In addition, when you Palm an Object, you can place it directly into this extradimensional space as long as the space has sufficient free space to hold the object.</p>\n<p>@Compendium[pf2e.equipment-srd.Extradimensional Stash]{Extradimensional Stash}</p>"
        },
        "featType": {
            "value": "class"
        },
        "level": {
            "value": 20
        },
        "location": "",
        "prerequisites": {
            "value": [
                {
                    "value": "legendary in Thievery"
                }
            ]
        },
        "rules": [],
        "source": {
            "value": "Pathfinder #168: King of the Mountain"
        },
        "traits": {
            "custom": "",
            "rarity": {
                "value": "uncommon"
            },
            "value": [
                "extradimensional",
                "rogue"
            ]
        }
    },
    "effects": [],
    "flags": {},
    "img": "systems/pf2e/icons/default-icons/feats.webp",
    "name": "Extradimensional Stash",
    "type": "feat"
}
