{
    "_id": "K9hM3AdWGbU3VE8L",
    "data": {
        "actionCategory": {
            "value": "offensive"
        },
        "actionType": {
            "value": "action"
        },
        "actions": {
            "value": 3
        },
        "description": {
            "value": "<p><strong>Requirements</strong> You're wielding an unloaded firearm.</p>\n<hr />\n<p>You jam a triple charge of black powder into your weapon to unleash a devastating but risky and inaccurate attack. Interact to reload, expending three doses of black powder in addition to your normal black powder or ammunition, then Strike with your firearm against a creature within the weapon's first range increment. If you roll a success, the attack is instead a critical success, but if you roll a failure, the weapon misfires. Regardless of your roll, after the attack you're @Compendium[pf2e.conditionitems.Flat-Footed]{Flat-footed} until the start of your next turn and @Compendium[pf2e.conditionitems.Stunned]{Stunned 1}.</p>"
        },
        "featType": {
            "value": "class"
        },
        "level": {
            "value": 18
        },
        "location": "",
        "prerequisites": {
            "value": []
        },
        "rules": [],
        "source": {
            "value": ""
        },
        "traits": {
            "custom": "",
            "rarity": {
                "value": "common"
            },
            "value": [
                "gunslinger"
            ]
        }
    },
    "effects": [],
    "flags": {},
    "img": "systems/pf2e/icons/default-icons/feats.webp",
    "name": "Final Shot",
    "type": "feat"
}
