{
    "_id": "XpZkzUV9PwUHvmyq",
    "data": {
        "actionCategory": {
            "value": ""
        },
        "actionType": {
            "value": "passive"
        },
        "actions": {
            "value": null
        },
        "description": {
            "value": "<p>When you draw upon your spells' synergy, you create a physical manifestation of their magical resonance and invoke it to harm a foe. When you use Dualistic Synergy, choose a damage type: acid, cold, electricity, or fire. In addition to Dualistic Synergy's normal effect, a foe within 30 feet of you takes an amount of damage of the chosen type equal to the spell's level. If the spell already deals damage of the chosen type, combine the damage before applying weaknesses and resistances.</p>"
        },
        "featType": {
            "value": "archetype"
        },
        "level": {
            "value": 16
        },
        "prerequisites": {
            "value": [
                {
                    "value": "Dualistic Synergy"
                }
            ]
        },
        "rules": [],
        "source": {
            "value": "Pathfinder Lost Omens: Character Guide"
        },
        "traits": {
            "custom": "",
            "rarity": {
                "value": "common"
            },
            "value": [
                "archetype"
            ]
        }
    },
    "effects": [],
    "flags": {},
    "img": "systems/pf2e/icons/features/feats/feats.webp",
    "name": "Fulminating Synergy",
    "type": "feat"
}
