{
    "_id": "5BEY7VzDVuiAg4PX",
    "data": {
        "actionCategory": {
            "value": ""
        },
        "actionType": {
            "value": "passive"
        },
        "actions": {
            "value": null
        },
        "description": {
            "value": "<p>You can speak to inanimate objects, finding a magical spark within them similar to the one that animated you. You can cast <em>@Compendium[pf2e.spells-srd.Stone Tell]{Stone Tell}</em> once per day as an arcane innate spell, but instead of speaking with natural or worked stone, you speak with toys, statues, or other three-dimensional inanimate objects crafted to mimic a creature's appearance, regardless of their composition. The GM has discretion over which objects you can speak with and what they know, although objects generally have a good opinion of those who have cared for them and a poor opinion of those who have neglected or ignored them.</p>"
        },
        "featType": {
            "value": "ancestry"
        },
        "level": {
            "value": 13
        },
        "location": "",
        "prerequisites": {
            "value": []
        },
        "rules": [],
        "source": {
            "value": ""
        },
        "traits": {
            "custom": "",
            "rarity": {
                "value": "uncommon"
            },
            "value": [
                "poppet"
            ]
        }
    },
    "effects": [],
    "flags": {},
    "img": "systems/pf2e/icons/default-icons/feats.webp",
    "name": "Impossible Gossip",
    "type": "feat"
}
