{
    "_id": "zybYSfeM0PLPpAaa",
    "data": {
        "actionCategory": {
            "value": ""
        },
        "actionType": {
            "value": "passive"
        },
        "actions": {
            "value": null
        },
        "description": {
            "value": "<p>When you use @Compendium[pf2e.actionspf2e.Catharsis]{Catharsis}, one ally within 30 feet gains the catharsis activation benefits in addition to you. If these benefits require an emotional focus, they use your emotional focus as they're experiencing an empathic imprint of your emotions. Depending on the activation benefit, it might be impossible to grant it to an ally; for instance, pride could only have an effect for an ally if both you and the ally critically failed the same saving throw against the same effect.</p>"
        },
        "featType": {
            "value": "archetype"
        },
        "level": {
            "value": 12
        },
        "location": "",
        "prerequisites": {
            "value": [
                {
                    "value": "Cathartic Mage Dedication"
                }
            ]
        },
        "rules": [],
        "source": {
            "value": ""
        },
        "traits": {
            "custom": "",
            "rarity": {
                "value": "common"
            },
            "value": [
                "archetype"
            ]
        }
    },
    "effects": [],
    "flags": {},
    "img": "systems/pf2e/icons/default-icons/feat.svg",
    "name": "Infectious Emotions",
    "type": "feat"
}
