{
    "_id": "FrlhErsjR6fEn6kX",
    "data": {
        "actionCategory": {
            "value": ""
        },
        "actionType": {
            "value": "passive"
        },
        "actions": {
            "value": null
        },
        "description": {
            "value": "<p>You've dabbled in minor magical abilities. Choose arcane, divine, occult, or primal magic, and gain two cantrips from the common cantrips that are available in that tradition. Your key spellcasting ability is Charisma, and you're trained in spell attack rolls and DCs for the tradition of your chosen cantrips..</p>"
        },
        "featType": {
            "value": "class"
        },
        "level": {
            "value": 2
        },
        "prerequisites": {
            "value": []
        },
        "rules": [],
        "source": {
            "value": "Pathfinder Core Rulebook"
        },
        "traits": {
            "custom": "",
            "rarity": {
                "value": "common"
            },
            "value": [
                "rogue"
            ]
        }
    },
    "effects": [],
    "flags": {},
    "img": "systems/pf2e/icons/features/feats/feats.webp",
    "name": "Minor Magic",
    "type": "feat"
}
