{
    "_id": "LbyNDCxFEkjp0iG7",
    "data": {
        "actionCategory": {
            "value": ""
        },
        "actionType": {
            "value": "passive"
        },
        "actions": {
            "value": null
        },
        "description": {
            "value": "<p>You can move through gloom with the speed of darkness. You can move 5 feet farther when you take the Sneak action, up to your Speed. In addition, as long as you continue to use Sneak actions and succeed at your Stealth check, you don't become @Compendium[pf2e.conditionitems.Observed]{Observed} if you end a Sneak action in dim light or darkness, as long as you have cover or greater cover or are @Compendium[pf2e.conditionitems.Concealed]{Concealed} at the end of your turn.</p>"
        },
        "featType": {
            "value": "ancestry"
        },
        "level": {
            "value": 1
        },
        "location": "",
        "prerequisites": {
            "value": []
        },
        "rules": [],
        "source": {
            "value": "Pathfinder Lost Omens: Ancestry Guide"
        },
        "traits": {
            "custom": "",
            "rarity": {
                "value": "common"
            },
            "value": [
                "fetchling"
            ]
        }
    },
    "effects": [],
    "flags": {},
    "img": "systems/pf2e/icons/features/feats/feats.webp",
    "name": "Slink",
    "type": "feat"
}
