{
    "_id": "Zn2uUL5i3MAZ0Zwc",
    "data": {
        "actionCategory": {
            "value": ""
        },
        "actionType": {
            "value": "passive"
        },
        "actions": {
            "value": null
        },
        "description": {
            "value": "<p>You've honed one spell as your favored combat technique, and you've practiced it enough that you no longer need to prepare it to cast it. Choose a spell in your spellbook that you could use with Spellstrike and that has a level no higher than the highest-level magus spell slot you have. You can Cast this Spell without having it prepared ahead of time by expending a spell slot of a sufficient level to cast your chosen spell. You can change this spell whenever you add new spells to your spellbook, or by studying your spellbook for 1 hour.</p>"
        },
        "featType": {
            "value": "class"
        },
        "level": {
            "value": 8
        },
        "location": "",
        "prerequisites": {
            "value": [
                {
                    "value": "Spellstrike"
                }
            ]
        },
        "rules": [],
        "source": {
            "value": ""
        },
        "traits": {
            "custom": "",
            "rarity": {
                "value": "common"
            },
            "value": [
                "magus"
            ]
        }
    },
    "effects": [],
    "flags": {},
    "img": "systems/pf2e/icons/features/feats/feats.webp",
    "name": "Standby Spell",
    "type": "feat"
}
