{
    "_id": "XoxawV3Fmn61VJcS",
    "data": {
        "actionCategory": {
            "value": ""
        },
        "actionType": {
            "value": "passive"
        },
        "actions": {
            "value": null
        },
        "description": {
            "value": "<p>When you cast vampiric touch, you can modify its standard effects as follows: Instead of gaining temporary Hit Points, if your target fails or critically fails its saving throw, you can attempt a counteract check to remove the clumsy or enfeebled conditions on yourself, using the source of that condition to determine the counteract level and DC. If the condition was caused by an ongoing effect and you don't remove that effect, the condition returns at the end of your next turn.</p>"
        },
        "featType": {
            "value": "archetype"
        },
        "level": {
            "value": 8
        },
        "location": "",
        "prerequisites": {
            "value": [
                {
                    "value": "Spell Trickster Dedication"
                },
                {
                    "value": "ability to cast vampiric touch"
                }
            ]
        },
        "rules": [],
        "source": {
            "value": ""
        },
        "traits": {
            "custom": "",
            "rarity": {
                "value": "common"
            },
            "value": [
                "archetype"
            ]
        }
    },
    "effects": [],
    "flags": {},
    "img": "systems/pf2e/icons/default-icons/feats.webp",
    "name": "Steal Vitality",
    "type": "feat"
}
