{
    "_id": "TNRB8IY6Wtk9BoMp",
    "data": {
        "actionCategory": {
            "value": ""
        },
        "actionType": {
            "value": "passive"
        },
        "actions": {
            "value": null
        },
        "description": {
            "value": "<p><strong>Frequency</strong> once per 10 minutes</p>\n<p><strong>Trigger</strong> A Strike would damage you.</p>\n<p><strong>Requirements</strong> You gained a terrain attunement benefit since the start of your most recent turn and that attunement matches the terrain you're in.</p>\n<hr />\n<p>You're so attuned to the land that it rises up to protect you from a potentially fatal blow in a seeming coincidence. For instance, a branch suddenly falls from a nearby tree to take the brunt of a sword swing or a surprising change of current disrupts an enemy's attack. You gain resistance to physical damage equal to double your level against the triggering Strike.</p>"
        },
        "featType": {
            "value": "archetype"
        },
        "level": {
            "value": 14
        },
        "location": "",
        "prerequisites": {
            "value": [
                {
                    "value": "Geomancer Dedication"
                },
                {
                    "value": "master in Nature"
                }
            ]
        },
        "rules": [],
        "source": {
            "value": ""
        },
        "traits": {
            "custom": "",
            "rarity": {
                "value": "common"
            },
            "value": [
                "archetype"
            ]
        }
    },
    "effects": [],
    "flags": {},
    "img": "systems/pf2e/icons/default-icons/feat.svg",
    "name": "Terrain Shield",
    "type": "feat"
}
