{
    "_id": "lotpVdFhxNsNP0Ru",
    "data": {
        "actionCategory": {
            "value": ""
        },
        "actionType": {
            "value": "passive"
        },
        "actions": {
            "value": null
        },
        "description": {
            "value": "<p><strong>Frequency</strong> once per day</p>\n<hr />\n<p>Who needs skill when you've got dumb luck? Sometimes your shots hit miraculously, regardless of the fact that you seemed to slip when you pulled the trigger or that you weren't aiming at your foe when you fired. You gain the @Compendium[pf2e.actionspf2e.Accidental Shot]{Accidental Shot} activity.</p>\n<p><strong>Special</strong> You can't select another dedication feat until you've gained two other feats from the unexpected sharpshooter archetype.</p>"
        },
        "featType": {
            "value": "archetype"
        },
        "level": {
            "value": 2
        },
        "location": "",
        "prerequisites": {
            "value": []
        },
        "rules": [],
        "source": {
            "value": ""
        },
        "traits": {
            "custom": "",
            "rarity": {
                "value": "uncommon"
            },
            "value": [
                "archetype",
                "dedication"
            ]
        }
    },
    "effects": [],
    "flags": {},
    "img": "systems/pf2e/icons/default-icons/feats.webp",
    "name": "Unexpected Sharpshooter Dedication",
    "type": "feat"
}
