{
    "_id": "TCLDccG80M5GeqGw",
    "data": {
        "actionCategory": {
            "value": "defensive"
        },
        "actionType": {
            "value": "reaction"
        },
        "actions": {
            "value": null
        },
        "description": {
            "value": "<p><strong>Frequency</strong> once per 10 minutes</p>\n<p><strong>Trigger</strong> An enemy reduces you to 0 HP, an enemy critically hits you, or you critically fail a saving throw against an enemy's effect.</p>\n<hr />\n<p>Defeat lets you to tap into your wellspring. Attempt the flat check for wellspring magic. If you critically succeed, you can choose to forgo gaining a temporary spell slot to instead have the triggering enemy undergo a wellspring surge. This surge functions just as it would for you, the only difference being that it emits from the enemy.</p>"
        },
        "featType": {
            "value": "archetype"
        },
        "level": {
            "value": 6
        },
        "location": "",
        "prerequisites": {
            "value": [
                {
                    "value": "Wellspring Mage Dedication"
                }
            ]
        },
        "rules": [],
        "source": {
            "value": ""
        },
        "traits": {
            "custom": "",
            "rarity": {
                "value": "common"
            },
            "value": [
                "archetype"
            ]
        }
    },
    "effects": [],
    "flags": {},
    "img": "systems/pf2e/icons/default-icons/feat.svg",
    "name": "Urgent Upwelling",
    "type": "feat"
}
