{
    "_id": "5npovgLMUlvtot2J",
    "data": {
        "actionCategory": {
            "value": ""
        },
        "actionType": {
            "value": "passive"
        },
        "actions": {
            "value": null
        },
        "description": {
            "value": "<p>Your training in the wrestling arts has made you particularly adept at moving, striking, and grappling while unencumbered. You become an expert in Athletics and gain the Titan Wrestler skill feat. You don't take the -2 circumstance penalty for making a lethal attack with your nonlethal unarmed attacks. In addition, you gain a +2 circumstance bonus to your Fortitude DC when resisting an opponent's attempts to Grapple you or Swallow you Whole.</p>\n<p><strong>Special</strong> You can't select another dedication feat until you have gained two other feats from the wrestler archetype.</p>"
        },
        "featType": {
            "value": "archetype"
        },
        "level": {
            "value": 2
        },
        "location": "",
        "prerequisites": {
            "value": [
                {
                    "value": "trained in Athletics, unarmed attacks, and unarmored defense"
                }
            ]
        },
        "rules": [],
        "source": {
            "value": ""
        },
        "traits": {
            "custom": "",
            "rarity": {
                "value": "common"
            },
            "value": [
                "archetype",
                "dedication"
            ]
        }
    },
    "effects": [],
    "flags": {},
    "img": "systems/pf2e/icons/default-icons/feats.webp",
    "name": "Wrestler Dedication",
    "type": "feat"
}
