{
    "_id": "QVEkEdxCnoGxMo9l",
    "data": {
        "actionCategory": {
            "value": ""
        },
        "actionType": {
            "value": "passive"
        },
        "actions": {
            "value": null
        },
        "description": {
            "value": "<p><strong>Moderate Boon (Daily)</strong>: Each morning, during your daily preparations, scars gather into words on your flesh.</p>\n<p>The scars function as a scroll of a divine spell of Zon-Kuthon's choosing.</p>\n<p>After you use the scroll or receive magical healing, the boon fades for the day, though some or all of the scars might remain as a reminder.</p>"
        },
        "featType": {
            "value": "deityboon"
        },
        "level": {
            "value": 0
        },
        "prerequisites": {
            "value": []
        },
        "rules": [],
        "source": {
            "value": ""
        },
        "traits": {
            "custom": "",
            "rarity": {
                "value": "common"
            },
            "selected": {},
            "value": []
        }
    },
    "effects": [],
    "flags": {},
    "img": "systems/pf2e/icons/deity/Zon-Kuthon.webp",
    "name": "Zon-Kuthon - Moderate Boon",
    "type": "feat"
}
