{
    "_id": "rAUaIxp3QFgT3bzl",
    "data": {
        "attributes": {
            "ac": {
                "value": 28
            },
            "hardness": 8,
            "hasHealth": true,
            "hp": {
                "details": "to break the spring under the step and make that step safe to stand on",
                "max": 25,
                "temp": 0,
                "tempmax": 0,
                "value": 25
            },
            "stealth": {
                "details": "<p>(expert)</p>",
                "value": 20
            }
        },
        "creatureType": "",
        "customModifiers": {},
        "details": {
            "description": "<p>This staircase has springs in each step, which send poisoned needles shooting up through tiny holes in the wood when stepped on. Each step, 6 in total, takes up one 5-foot square.</p>",
            "disable": "<p>DC 33 Thievery (master) on each stair to disable its spring, or deactivate the switch in area <strong>C8</strong> to deactivate the whole trap. Cutting the wire on the topmost stair (DC 35 to Disable the Device) that connects the staircase to the control switch prevents the control switch from turning the trap on or off.</p>",
            "isComplex": true,
            "level": {
                "value": 11
            },
            "reset": "<p>If deactivated via the switch, the trap can be reactivated with the switch in area <strong>C8</strong>.</p>",
            "routine": "<p>(1 action) The trap makes a separate poisoned needle Strike against each creature currently on an active step as 1 action. Because it is constantly jabbing needles up through any weight-bearing steps, the trap can also use its Bloody Feet free action to jab at a creature on one of the steps during that creature's turn.</p>"
        },
        "saves": {
            "fortitude": {
                "saveDetail": "",
                "value": 22
            },
            "reflex": {
                "saveDetail": "",
                "value": 19
            },
            "will": {
                "saveDetail": "",
                "value": 0
            }
        },
        "source": {
            "value": "Pathfinder #159: All or Nothing"
        },
        "statusEffects": [],
        "traits": {
            "ci": [],
            "di": {
                "custom": "",
                "selected": {},
                "value": [
                    "precision",
                    "critical-hits",
                    "object-immunities"
                ]
            },
            "dr": [],
            "dv": [],
            "rarity": {
                "value": "common"
            },
            "size": {
                "value": "med"
            },
            "traits": {
                "custom": "",
                "value": [
                    "mechanical",
                    "trap"
                ]
            }
        }
    },
    "effects": [],
    "flags": {},
    "img": "systems/pf2e/icons/default-icons/hazard.svg",
    "items": [
        {
            "_id": "fBWMN8Yh6mm05krO",
            "data": {
                "actionCategory": {
                    "value": "offensive"
                },
                "actionType": {
                    "value": "reaction"
                },
                "actions": {
                    "value": null
                },
                "description": {
                    "value": "<p data-visibility=\"gm\"><strong>Trigger</strong> A creature ends its movement on one of the stairs;</p>\n<p><strong>Effect</strong> The trap makes a poisoned needle Strike against the triggering creature, then rolls initiative.</p>"
                },
                "requirements": {
                    "value": ""
                },
                "rules": [],
                "slug": null,
                "source": {
                    "value": ""
                },
                "traits": {
                    "custom": "",
                    "rarity": {
                        "value": "common"
                    },
                    "value": []
                },
                "trigger": {
                    "value": ""
                },
                "weapon": {
                    "value": ""
                }
            },
            "effects": [],
            "flags": {},
            "img": "systems/pf2e/icons/actions/Reaction.webp",
            "name": "First Step",
            "sort": 100000,
            "type": "action"
        },
        {
            "_id": "jzOEMi9hAVAe1K1V",
            "data": {
                "attack": {
                    "value": ""
                },
                "attackEffects": {
                    "custom": "",
                    "value": [
                        "no-multiple-attack-penalty"
                    ]
                },
                "bonus": {
                    "value": 24
                },
                "damageRolls": {
                    "jf289d8zefcrrftouekw": {
                        "damage": "2d6+8",
                        "damageType": "piercing"
                    }
                },
                "description": {
                    "value": "<p>[[/r 1d6 #persistent bleed]] @Compendium[pf2e.conditionitems.Persistent Damage]{Persistent Bleed Damage}</p>\n<p>[[/r 4d6 #peristent poison]] @Compendium[pf2e.conditionitems.Persistent Damage]{Persistent Poison Damage}</p>"
                },
                "rules": [],
                "slug": null,
                "source": {
                    "value": ""
                },
                "traits": {
                    "custom": "",
                    "rarity": {
                        "value": "common"
                    },
                    "value": []
                },
                "weaponType": {
                    "value": "melee"
                }
            },
            "effects": [],
            "flags": {},
            "img": "systems/pf2e/icons/default-icons/melee.svg",
            "name": "Poisoned Needle",
            "sort": 200000,
            "type": "melee"
        },
        {
            "_id": "iqSjrlDup1I8i5VX",
            "data": {
                "actionCategory": {
                    "value": "offensive"
                },
                "actionType": {
                    "value": "free"
                },
                "actions": {
                    "value": null
                },
                "description": {
                    "value": "<p data-visibility=\"gm\"><strong>Trigger</strong> A creature moves onto an active step;</p>\n<p><strong>Effect</strong> The trap makes a poisoned needle Strike against the triggering creature.</p>"
                },
                "requirements": {
                    "value": ""
                },
                "rules": [],
                "slug": null,
                "source": {
                    "value": ""
                },
                "traits": {
                    "custom": "",
                    "rarity": {
                        "value": "common"
                    },
                    "value": []
                },
                "trigger": {
                    "value": ""
                },
                "weapon": {
                    "value": ""
                }
            },
            "effects": [],
            "flags": {},
            "img": "systems/pf2e/icons/actions/FreeAction.webp",
            "name": "Bloody Feet",
            "sort": 300000,
            "type": "action"
        }
    ],
    "name": "Needling Stairs",
    "token": {
        "disposition": 0,
        "height": 1,
        "img": "systems/pf2e/icons/default-icons/hazard.svg",
        "name": "Needling Stairs",
        "width": 1
    },
    "type": "hazard"
}
