{
    "_id": "6HCI2iHyBZAr7a4P",
    "data": {
        "actionCategory": {
            "value": ""
        },
        "actionType": {
            "value": "passive"
        },
        "actions": {
            "value": null
        },
        "description": {
            "value": "<p>Your hybrid study grants you additional spells that can enhance your power in combat. You gain two special 2nd-level studious spell slots, which can be used to prepare spider climb, true strike, water breathing, and an additional spell depending on your hybrid study. You add any spells from this class feature to your spellbook. At 11th level, the extra slots increase to 3rd level and you add haste and an additional spell depending on your hybrid study. At 13th level, the extra slots increase to 4th level and you add fly and an additional spell depending on your hybrid study.</p>\n<p><strong>Laughing Shadow</strong> 7th: <em>@Compendium[pf2e.spells-srd.Mirror Image]{Mirror Image}</em>; 11th: <em>@Compendium[pf2e.spells-srd.Shift Blame]{Shift Blame}</em>; 13th: <em>@Compendium[pf2e.spells-srd.Dimension Door]{Dimension Door}</em></p>\n<p><strong>Sparkling Targe</strong> 7th: <em>@Compendium[pf2e.spells-srd.Resist Energy]{Resist Energy}</em>; 11th: <em>@Compendium[pf2e.spells-srd.Warding Aggression]{Warding Aggression}</em>; 13th: <em>@Compendium[pf2e.spells-srd.Stoneskin]{Stoneskin}</em></p>\n<p><strong>Starlit Span</strong> 7th: <em>@Compendium[pf2e.spells-srd.Darkvision]{Darkvision}</em>; 11th: <em>@Compendium[pf2e.spells-srd.Wall of Wind]{Wall of Wind}</em>; 13th: <em>@Compendium[pf2e.spells-srd.Freedom of Movement]{Freedom of Movement}</em></p>\n<p><strong>Inexorable Iron</strong> 7th: <em>@Compendium[pf2e.spells-srd.Enlarge]{Enlarge}</em>; 11th: <em>@Compendium[pf2e.spells-srd.Earthbind]{Earthbind}</em>; 13th: <em>@Compendium[pf2e.spells-srd.Dimensional Anchor]{Dimensional Anchor}</em></p>\n<p><strong>Twisting Tree</strong> 7th: <em>@Compendium[pf2e.spells-srd.Magic Mouth]{Magic Mouth}</em>; 11th: <em>@Compendium[pf2e.spells-srd.Slow]{Slow}</em>; 13th: <em>@Compendium[pf2e.spells-srd.Blink]{Blink}</em></p>"
        },
        "featType": {
            "value": "classfeature"
        },
        "level": {
            "value": 7
        },
        "location": "",
        "prerequisites": {
            "value": []
        },
        "rules": [],
        "source": {
            "value": ""
        },
        "traits": {
            "custom": "",
            "rarity": {
                "value": "common"
            },
            "value": [
                "magus"
            ]
        }
    },
    "effects": [],
    "flags": {},
    "img": "systems/pf2e/icons/features/classes/studious-spells.webp",
    "name": "Studious Spells",
    "type": "feat"
}
