{
    "_id": "vB0yVFxJVZwalt2g",
    "data": {
        "actionCategory": {
            "value": ""
        },
        "actionType": {
            "value": "passive"
        },
        "actions": {
            "value": null
        },
        "description": {
            "value": "<p>You practice a unique combat style originated by dwarven siege engineers, using heavy weapons with wide attack areas to blast holes through enemy lines, clear an opening for your allies, and defend the conquered territory.</p>\n<p><strong>Slinger's Reload</strong> Clear a Path</p>\n<p><strong>Deeds</strong> <em>Initial</em> Living Fortification; <em>Advanced</em> Spinning Crush; <em>Greater</em> Siegebreaker</p>\n<p><strong>Way Skill</strong> Athletics</p>"
        },
        "featType": {
            "value": "classfeature"
        },
        "level": {
            "value": 1
        },
        "location": "",
        "prerequisites": {
            "value": []
        },
        "rules": [],
        "source": {
            "value": ""
        },
        "traits": {
            "custom": "",
            "rarity": {
                "value": "common"
            },
            "value": [
                "gunslinger"
            ]
        }
    },
    "effects": [],
    "flags": {},
    "img": "systems/pf2e/icons/features/classes/way-of-the-vanguard.webp",
    "name": "Way of the Vanguard",
    "type": "feat"
}
