{
    "_id": "usi1qa95gK4WnFIg",
    "data": {
        "description": {
            "value": "<p>Your unnatural lightness makes it hard to keep your footing and interact with other physical objects.</p>\n<p>You are @Compendium[pf2e.conditionitems.Enfeebled]{Enfeebled 1} and take a -2 penalty to saves and DCs against @Compendium[pf2e.actionspf2e.Grapple]{Grapple}, @Compendium[pf2e.actionspf2e.Shove]{Shove}, and other forms of forced movement.</p>\n<hr />\n<p><em>Note: You need to apply the effects of this curse manually.</em></p>"
        },
        "duration": {
            "expiry": "turn-start",
            "sustained": false,
            "unit": "unlimited",
            "value": -1
        },
        "level": {
            "value": 1
        },
        "rules": [
            {
                "key": "FlatModifier",
                "label": "Minor Curse of Cosmos (vs. grapple, shove and forced movement)",
                "predicate": {
                    "any": [
                        "action:grapple",
                        "action:shove",
                        "forced-movement"
                    ]
                },
                "selector": "saving-throw",
                "value": -2
            }
        ],
        "source": {
            "value": ""
        },
        "start": {
            "initiative": null,
            "value": 0
        },
        "target": null,
        "tokenIcon": {
            "show": true
        },
        "traits": {
            "custom": "",
            "rarity": {
                "value": "common"
            },
            "value": []
        }
    },
    "effects": [],
    "flags": {},
    "img": "systems/pf2e/icons/features/classes/cosmos-mystery.webp",
    "name": "Effect: Minor Cosmos Curse",
    "type": "effect"
}
