{
    "_id": "Q5FUu7yhWPJlcXei",
    "data": {
        "description": {
            "value": "<p>Granted by @Compendium[pf2e.ancestryfeatures.Hydration]{Hydration} if you spend 24 hours outside of water.</p>"
        },
        "duration": {
            "expiry": "turn-start",
            "sustained": false,
            "unit": "days",
            "value": 1
        },
        "level": {
            "value": 1
        },
        "rules": [
            {
                "key": "FlatModifier",
                "label": "Dehydrated",
                "selector": "fortitude",
                "type": "status",
                "value": -1
            }
        ],
        "source": {
            "value": ""
        },
        "start": {
            "initiative": null,
            "value": 0
        },
        "target": null,
        "tokenIcon": {
            "show": true
        },
        "traits": {
            "custom": "",
            "rarity": {
                "value": "common"
            },
            "value": []
        }
    },
    "effects": [],
    "flags": {},
    "img": "systems/pf2e/icons/spells/medusas-wrath.webp",
    "name": "Effect: Hydration",
    "type": "effect"
}
