{
    "_id": "JhRuR7Jj3ViShpq7",
    "data": {
        "ability": {
            "value": ""
        },
        "area": {
            "areaType": "",
            "value": ""
        },
        "areasize": {
            "value": ""
        },
        "category": {
            "value": "spell"
        },
        "components": {
            "material": false,
            "somatic": true,
            "verbal": true
        },
        "cost": {
            "value": ""
        },
        "damage": {
            "value": {}
        },
        "description": {
            "value": "<p>You touch the target to afflict it with ghoul fever, infesting it with hunger and a steadily decreasing connection to positive energy; the target must attempt a Fortitude save.</p>\n<hr />\n<p><strong>Critical Success</strong> The target is unaffected.</p>\n<p><strong>Success</strong> The target is afflicted with ghoul fever at stage 1.</p>\n<p><strong>Failure</strong> The target is afflicted with ghoul fever at stage 2.</p>\n<p><strong>Critical Failure</strong> The target is afflicted with ghoul fever at stage 3.</p>\n<hr />\n<p><strong>Ghoul Fever</strong> (disease); <strong>Level</strong> 3;</p>\n<p><strong>Stage</strong> <strong>1</strong> carrier with no ill effects (1 day);</p>\n<p><strong>Stage</strong> <strong>2</strong> 3d8 negative damage and the creature regains half as many Hit Points from all healing (1 day);</p>\n<p><strong>Stage</strong> <strong>3</strong> as stage 2 (1 day);</p>\n<p><strong>Stage</strong> <strong>4</strong> 3d8 negative damage and the creature gains no benefit from healing (1 day);</p>\n<p><strong>Stage</strong> <strong>5</strong> as stage 4 (1 day);</p>\n<p><strong>Stage 6</strong> the creature dies and rises as a ghoul at the next midnight</p>"
        },
        "duration": {
            "value": ""
        },
        "hasCounteractCheck": {
            "value": false
        },
        "level": {
            "value": 2
        },
        "location": {
            "value": ""
        },
        "materials": {
            "value": ""
        },
        "prepared": {
            "value": ""
        },
        "primarycheck": {
            "value": ""
        },
        "range": {
            "value": "touch"
        },
        "rules": [],
        "save": {
            "basic": "",
            "value": "fortitude"
        },
        "school": {
            "value": "necromancy"
        },
        "secondarycasters": {
            "value": ""
        },
        "secondarycheck": {
            "value": ""
        },
        "source": {
            "value": "Pathfinder Core Rulebook"
        },
        "spellType": {
            "value": "save"
        },
        "sustained": {
            "value": false
        },
        "target": {
            "value": "1 creature"
        },
        "time": {
            "value": "2"
        },
        "traditions": {
            "value": [
                "divine",
                "occult"
            ]
        },
        "traits": {
            "custom": "",
            "rarity": {
                "value": "common"
            },
            "value": [
                "disease",
                "evil"
            ]
        }
    },
    "effects": [],
    "flags": {},
    "img": "systems/pf2e/icons/spells/ghoulish-cravings.webp",
    "name": "Ghoulish Cravings",
    "type": "spell"
}
