{
    "_id": "CPcMqEd4H5yIVl3i",
    "data": {
        "actionCategory": {
            "value": ""
        },
        "actionType": {
            "value": "passive"
        },
        "actions": {
            "value": null
        },
        "description": {
            "value": "<p><strong>[Slotless]</strong></p>\n<p><strong>Prerequisites</strong>: Tier 4 with the Horizon Hunters</p>\n<p><strong>Cost</strong>: 8 Fame</p>\n<p><strong>Effect</strong>: Your journeys have taken you far, and Pathfinders who follow in your footsteps benefit from your breadth of experience. Select 1 of your Pathfinder Society characters with 12 or fewer XP. That character can simultaneously benefit from two copies of the @Compendium[pf2e.pathfinder-society-boons.Home Region]{Home Region} boon.</p>"
        },
        "featType": {
            "value": "pfsboon"
        },
        "level": {
            "value": 0
        },
        "prerequisites": {
            "value": []
        },
        "rules": [],
        "source": {
            "value": ""
        },
        "traits": {
            "custom": "",
            "rarity": {
                "value": "common"
            },
            "selected": {},
            "value": []
        }
    },
    "effects": [],
    "flags": {},
    "img": "systems/pf2e/icons/default-icons/mystery-man.webp",
    "name": "World Traveller",
    "type": "feat"
}
