{
    "_id": "oX51Db6IxnUI64dT",
    "data": {
        "description": {
            "value": "<p>Granted by @Compendium[pf2e.feats-srd.Emblazon Energy]{Emblazon Energy} when applied to a weapon.</p>\n<ul>\n<li><strong>Weapon</strong> The weapon deals an extra 1d4 electricity damage, or an extra 1d6 electricity damage if you have a domain spell with the electricity trait.</li>\n</ul>"
        },
        "duration": {
            "expiry": "turn-start",
            "sustained": false,
            "unit": "unlimited",
            "value": -1
        },
        "level": {
            "value": 8
        },
        "rules": [
            {
                "key": "EffectTarget",
                "scope": "weapon"
            },
            {
                "damageType": "electricity",
                "diceNumber": 1,
                "dieSize": "d4",
                "key": "DamageDice",
                "label": "Emblazon Energy (Electricity)",
                "predicate": {
                    "not": [
                        "electricity-domain"
                    ]
                },
                "selector": "{item|data.target}-damage"
            },
            {
                "damageType": "electricity",
                "diceNumber": 1,
                "dieSize": "d6",
                "key": "DamageDice",
                "label": "Emblazon Energy (Electricity Domain)",
                "predicate": {
                    "all": [
                        "electricity-domain"
                    ]
                },
                "selector": "{item|data.target}-damage"
            }
        ],
        "source": {
            "value": ""
        },
        "start": {
            "initiative": null,
            "value": 0
        },
        "target": null,
        "tokenIcon": {
            "show": true
        },
        "traits": {
            "custom": "",
            "rarity": {
                "value": "common"
            },
            "value": []
        }
    },
    "effects": [],
    "flags": {},
    "img": "systems/pf2e/icons/spells/spiritual-weapon.webp",
    "name": "Effect: Emblazon Energy (Weapon, Electricity)",
    "type": "effect"
}
