{
    "_id": "xqnl2eFzy5H2NZoQ",
    "data": {
        "abilities": {
            "cha": {
                "mod": 3
            },
            "con": {
                "mod": 4
            },
            "dex": {
                "mod": 1
            },
            "int": {
                "mod": 3
            },
            "str": {
                "mod": 6
            },
            "wis": {
                "mod": 2
            }
        },
        "attributes": {
            "ac": {
                "details": "",
                "value": 25
            },
            "allSaves": {
                "value": ""
            },
            "hp": {
                "details": "",
                "max": 110,
                "temp": 0,
                "value": 110
            },
            "initiative": {
                "ability": "perception"
            },
            "perception": {
                "value": 15
            },
            "shield": {
                "ac": 0,
                "brokenThreshold": 0,
                "hardness": 0,
                "max": 0,
                "value": 0
            },
            "speed": {
                "otherSpeeds": [
                    {
                        "type": "Burrow",
                        "value": "45 feet"
                    },
                    {
                        "type": "Climb",
                        "value": "20 feet"
                    }
                ],
                "value": "20 feet"
            }
        },
        "details": {
            "alignment": {
                "value": "LN"
            },
            "blurb": "",
            "creatureType": "Elemental",
            "level": {
                "value": 7
            },
            "privateNotes": "",
            "publicNotes": "<p>Hailing from the Plane of Earth, shaitans are proud and brazen genies. They value physical skill and love bargaining, games of chance, and working with metal and stone. Immense gemstones and veins of precious metal crisscross their home plane, and the industrious shaitans have built a vast mercantile empire from these abundant natural resources.</p>",
            "source": {
                "value": "Pathfinder Bestiary"
            }
        },
        "resources": {
            "focus": {
                "max": 1,
                "value": 1
            }
        },
        "saves": {
            "fortitude": {
                "saveDetail": "",
                "value": 18
            },
            "reflex": {
                "saveDetail": "",
                "value": 12
            },
            "will": {
                "saveDetail": "",
                "value": 15
            }
        },
        "traits": {
            "ci": [],
            "di": {
                "custom": "",
                "value": []
            },
            "dr": [
                {
                    "label": "Electricity",
                    "type": "electricity",
                    "value": "10"
                }
            ],
            "dv": [],
            "languages": {
                "custom": "",
                "selected": [],
                "value": [
                    "common",
                    "terran"
                ]
            },
            "rarity": {
                "value": "uncommon"
            },
            "senses": {
                "value": "darkvision, detect magic, tremorsense (imprecise) 60 feet"
            },
            "size": {
                "value": "lg"
            },
            "traits": {
                "custom": "",
                "value": [
                    "earth",
                    "elemental",
                    "genie"
                ]
            }
        }
    },
    "effects": [],
    "flags": {},
    "img": "systems/pf2e/icons/default-icons/npc.svg",
    "items": [
        {
            "_id": "haoqhlEIkJbgiCyi",
            "data": {
                "ability": {
                    "value": ""
                },
                "autoHeightenLevel": {
                    "value": null
                },
                "description": {
                    "value": ""
                },
                "displayLevel": {},
                "displayLevels": {},
                "item": {
                    "value": 0
                },
                "prepared": {
                    "value": "innate"
                },
                "proficiency": {
                    "value": 0
                },
                "rules": [],
                "showSlotlessLevels": {
                    "value": true
                },
                "showUnpreparedSpells": {
                    "value": false
                },
                "signatureSpells": {
                    "value": []
                },
                "slots": {
                    "slot0": {
                        "max": 0,
                        "prepared": [],
                        "value": 0
                    },
                    "slot1": {
                        "max": 0,
                        "prepared": [],
                        "value": 0
                    },
                    "slot10": {
                        "max": 0,
                        "prepared": [],
                        "value": 0
                    },
                    "slot11": {
                        "max": 0,
                        "prepared": [],
                        "value": 0
                    },
                    "slot2": {
                        "max": 0,
                        "prepared": [],
                        "value": 0
                    },
                    "slot3": {
                        "max": 0,
                        "prepared": [],
                        "value": 0
                    },
                    "slot4": {
                        "max": 0,
                        "prepared": [],
                        "value": 0
                    },
                    "slot5": {
                        "max": 0,
                        "prepared": [],
                        "value": 0
                    },
                    "slot6": {
                        "max": 0,
                        "prepared": [],
                        "value": 0
                    },
                    "slot7": {
                        "max": 0,
                        "prepared": [],
                        "value": 0
                    },
                    "slot8": {
                        "max": 0,
                        "prepared": [],
                        "value": 0
                    },
                    "slot9": {
                        "max": 0,
                        "prepared": [],
                        "value": 0
                    }
                },
                "slug": null,
                "source": {
                    "value": ""
                },
                "spelldc": {
                    "dc": "24",
                    "item": 0,
                    "mod": 0,
                    "value": 14
                },
                "tradition": {
                    "value": "arcane"
                },
                "traits": {
                    "custom": "",
                    "rarity": {
                        "value": "common"
                    },
                    "value": []
                }
            },
            "effects": [],
            "flags": {},
            "img": "systems/pf2e/icons/default-icons/spellcastingEntry.svg",
            "name": "Arcane Innate Spells",
            "sort": 100000,
            "type": "spellcastingEntry"
        },
        {
            "_id": "jBGdnRghZPXbLevs",
            "data": {
                "ability": {
                    "value": ""
                },
                "area": {
                    "areaType": "",
                    "value": null
                },
                "autoHeightenLevel": {
                    "value": null
                },
                "category": {
                    "value": "spell"
                },
                "components": {
                    "focus": false,
                    "material": true,
                    "somatic": true,
                    "verbal": true
                },
                "cost": {
                    "value": ""
                },
                "damage": {
                    "value": {
                        "0": {
                            "type": {
                                "categories": [],
                                "value": "untyped"
                            },
                            "value": "1d20"
                        }
                    }
                },
                "description": {
                    "value": "<p>You and your allies traverse the barriers between planes of existence. The targets move to another plane, such as the Plane of Fire, the Shadow Plane, or the Abyss. You must have specific knowledge of the destination plane and use a magic tuning fork created from material from that plane as a focus for the spell. While the tuning forks for most prominent planes are uncommon, just like the spell plane shift, more obscure planes and demiplanes often have rare tuning forks. The spell is highly imprecise, and you appear 1d20x25 miles from the last place one of the targets (of your choice) was located the last time that target traveled to the plane. If it's the first time traveling to a particular plane for all targets, you appear at a random location on the plane. Plane shift doesn't provide a means of return travel, though casting plane shift again allows you to return to your previous plane unless there are extenuating circumstances.</p>"
                },
                "duration": {
                    "value": ""
                },
                "hasCounteractCheck": {
                    "value": false
                },
                "level": {
                    "value": 7
                },
                "location": {
                    "value": "haoqhlEIkJbgiCyi"
                },
                "materials": {
                    "value": ""
                },
                "prepared": {
                    "value": ""
                },
                "range": {
                    "value": "touch"
                },
                "rules": [],
                "save": {
                    "basic": "",
                    "value": ""
                },
                "school": {
                    "value": "conjuration"
                },
                "slug": null,
                "source": {
                    "value": "https://2e.aonprd.com/Spells.aspx?ID=222"
                },
                "spellType": {
                    "value": "utility"
                },
                "sustained": {
                    "value": false
                },
                "target": {
                    "value": "1 willing creature, or up to 8 willing creatures joining hands"
                },
                "time": {
                    "value": " 10 minutes"
                },
                "traditions": {
                    "value": [
                        "arcane",
                        "divine",
                        "occult",
                        "primal"
                    ]
                },
                "traits": {
                    "custom": "",
                    "rarity": {
                        "value": "common"
                    },
                    "value": [
                        "teleportation"
                    ]
                }
            },
            "effects": [],
            "flags": {},
            "img": "systems/pf2e/icons/spells/plane-shift.webp",
            "name": "Plane Shift (to Astral Plane, Elemental Planes, or Material Plane only)",
            "sort": 200000,
            "type": "spell"
        },
        {
            "_id": "RM93cbZm6qjq63XT",
            "data": {
                "ability": {
                    "value": ""
                },
                "area": {
                    "areaType": "",
                    "value": null
                },
                "autoHeightenLevel": {
                    "value": null
                },
                "category": {
                    "value": "spell"
                },
                "components": {
                    "focus": false,
                    "material": false,
                    "somatic": true,
                    "verbal": true
                },
                "cost": {
                    "value": ""
                },
                "damage": {
                    "value": {}
                },
                "description": {
                    "value": "<p>You disguise the targets as other creatures of the same body shape and roughly similar height (within 6 inches) and weight (within 50 pounds). The disguise can hide the targets' identities or let them appear to be of another ancestry, but it's not precise enough to impersonate specific individuals. The spell doesn't change voice, scent, or mannerisms. You choose the disguise for each target; for example, you could make one target appear to be a dwarf and another an elf. Casting veil counts as setting up a disguise for the purpose of the Impersonate action. It allows the target to ignore any circumstance penalties they might take for being disguised as dissimilar creatures, and it gives the targets a +4 status bonus to Deception checks to prevent others from seeing through their disguises, and add their level even if untrained. You can Dismiss any or all of these disguises.</p>\n<hr />\n<p><strong>Heightened (5th)</strong> The spell also disguises the targets' voices and scents; it gains the auditory trait.</p>\n<p><strong>Heightened (7th)</strong> The targets can appear as any creature of the same size, even specific individuals. You must have seen an individual to reproduce their appearance. The spell also disguises the targets' voices and scents; it gains the auditory trait.</p>"
                },
                "duration": {
                    "value": "1 hour"
                },
                "hasCounteractCheck": {
                    "value": false
                },
                "level": {
                    "value": 5
                },
                "location": {
                    "value": "haoqhlEIkJbgiCyi"
                },
                "materials": {
                    "value": ""
                },
                "prepared": {
                    "value": ""
                },
                "range": {
                    "value": "30 feet"
                },
                "rules": [],
                "save": {
                    "basic": "",
                    "value": ""
                },
                "school": {
                    "value": "illusion"
                },
                "slug": null,
                "source": {
                    "value": "https://2e.aonprd.com/Spells.aspx?ID=355"
                },
                "spellType": {
                    "value": "utility"
                },
                "sustained": {
                    "value": false
                },
                "target": {
                    "value": "up to 10 creatures"
                },
                "time": {
                    "value": "2"
                },
                "traditions": {
                    "value": [
                        "arcane",
                        "occult"
                    ]
                },
                "traits": {
                    "custom": "",
                    "rarity": {
                        "value": "common"
                    },
                    "value": [
                        "visual"
                    ]
                }
            },
            "effects": [],
            "flags": {},
            "img": "systems/pf2e/icons/spells/veil.webp",
            "name": "Veil (self only)",
            "sort": 300000,
            "type": "spell"
        },
        {
            "_id": "w8SnqGBZWxM4Buyz",
            "data": {
                "ability": {
                    "value": ""
                },
                "area": {
                    "areaType": "",
                    "value": null
                },
                "autoHeightenLevel": {
                    "value": null
                },
                "category": {
                    "value": "spell"
                },
                "components": {
                    "focus": false,
                    "material": true,
                    "somatic": true,
                    "verbal": true
                },
                "cost": {
                    "value": ""
                },
                "damage": {
                    "value": {}
                },
                "description": {
                    "value": "<p>You shape a wall of solid stone. You create a 1-inch-thick wall of stone up to 120 feet long, and 20 feet high. You can shape the wall's path, placing each 5 feet of the wall on the border between squares. The wall doesn't need to stand vertically, so you can use it to form a bridge or set of stairs, for example. You must conjure the wall in an un @Compendium[pf2e.conditionitems.Broken]{Broken} open space so its edges don't pass through any creatures or objects, or the spell is lost. Each 5-foot-by-5-foot section of the wall has AC 10, Hardness 14, and 50 Hit Points, and it's immune to critical hits and precision damage. A destroyed section of the wall can be moved through, but the rubble created from it is difficult terrain.</p>\n<hr />\n<p><strong>Heightened (+2)</strong> The Hit Points of each section of the wall increase by 15.</p>"
                },
                "duration": {
                    "value": ""
                },
                "hasCounteractCheck": {
                    "value": false
                },
                "level": {
                    "value": 5
                },
                "location": {
                    "value": "haoqhlEIkJbgiCyi"
                },
                "materials": {
                    "value": ""
                },
                "prepared": {
                    "value": ""
                },
                "range": {
                    "value": "120 feet"
                },
                "rules": [],
                "save": {
                    "basic": "",
                    "value": ""
                },
                "school": {
                    "value": "conjuration"
                },
                "slug": null,
                "source": {
                    "value": "https://2e.aonprd.com/Spells.aspx?ID=365"
                },
                "spellType": {
                    "value": "utility"
                },
                "sustained": {
                    "value": false
                },
                "target": {
                    "value": ""
                },
                "time": {
                    "value": "2"
                },
                "traditions": {
                    "value": [
                        "arcane",
                        "primal"
                    ]
                },
                "traits": {
                    "custom": "",
                    "rarity": {
                        "value": "common"
                    },
                    "value": [
                        "earth"
                    ]
                }
            },
            "effects": [],
            "flags": {},
            "img": "systems/pf2e/icons/spells/wall-of-stone.webp",
            "name": "Wall of Stone",
            "sort": 400000,
            "type": "spell"
        },
        {
            "_id": "n9Ly80GaM3LcjCZ3",
            "data": {
                "ability": {
                    "value": ""
                },
                "area": {
                    "areaType": "emanation",
                    "value": 30
                },
                "autoHeightenLevel": {
                    "value": null
                },
                "category": {
                    "value": "spell"
                },
                "components": {
                    "focus": false,
                    "material": false,
                    "somatic": true,
                    "verbal": true
                },
                "cost": {
                    "value": ""
                },
                "damage": {
                    "value": {}
                },
                "description": {
                    "value": "<p>You send out a pulse that registers the presence of magic. You receive no information beyond the presence or absence of magic. You can choose to ignore magic you're fully aware of, such as the magic items and ongoing spells of you and your allies.</p>\n<p>You detect illusion magic only if that magic's effect has a lower level than the level of your detect magic spell. However, items that have an illusion aura but aren't deceptive in appearance (such as an invisibility potion) typically are detected normally.</p>\n<hr style=\"color: #0f0f0f; font-family: 'Century Gothic', CenturyGothic, AppleGothic, sans-serif; font-size: 15px; background-color: #ededed;\">\n<p><strong>Heightened (3rd)</strong> You learn the school of magic for the highest-level effect within range that the spell detects. If multiple effects are equally strong, the GM determines which you learn.<br style=\"color: #0f0f0f; font-family: 'Century Gothic', CenturyGothic, AppleGothic, sans-serif; font-size: 15px; background-color: #ededed;\"><strong>Heightened (4th)</strong> As 3rd level, but you also pinpoint the source of the highest-level magic. Like for an imprecise sense, you don't learn the exact location, but can narrow down the source to within a 5-foot cube (or the nearest if larger than that).</p>"
                },
                "duration": {
                    "value": ""
                },
                "hasCounteractCheck": {
                    "value": false
                },
                "level": {
                    "value": 4
                },
                "location": {
                    "value": "haoqhlEIkJbgiCyi"
                },
                "materials": {
                    "value": ""
                },
                "prepared": {
                    "value": ""
                },
                "range": {
                    "value": ""
                },
                "rules": [],
                "save": {
                    "basic": "",
                    "value": ""
                },
                "school": {
                    "value": "divination"
                },
                "slug": null,
                "source": {
                    "value": ""
                },
                "spellType": {
                    "value": "utility"
                },
                "sustained": {
                    "value": false
                },
                "target": {
                    "value": "30-foot emination"
                },
                "time": {
                    "value": "2"
                },
                "traditions": {
                    "custom": "",
                    "value": [
                        "arcane",
                        "divine",
                        "occult",
                        "primal"
                    ]
                },
                "traits": {
                    "custom": "",
                    "rarity": {
                        "value": "common"
                    },
                    "value": [
                        "detection",
                        "cantrip"
                    ]
                }
            },
            "effects": [],
            "flags": {},
            "img": "systems/pf2e/icons/spells/detect-magic.webp",
            "name": "Detect Magic (Constant)",
            "sort": 500000,
            "type": "spell"
        },
        {
            "_id": "WB1nN2f2JpSl4tQv",
            "data": {
                "ability": {
                    "value": ""
                },
                "area": {
                    "areaType": "",
                    "value": null
                },
                "autoHeightenLevel": {
                    "value": null
                },
                "category": {
                    "value": "spell"
                },
                "components": {
                    "focus": false,
                    "material": false,
                    "somatic": true,
                    "verbal": true
                },
                "cost": {
                    "value": ""
                },
                "damage": {
                    "value": {}
                },
                "description": {
                    "value": "<p>You shape the stone into a rough shape of your choice. The shaping process is too crude to produce intricate parts, fine details, moving pieces, or the like. Any creatures standing atop the stone when you reshape it must each attempt a Reflex save or Acrobatics check.</p>\n<hr /><strong>Success</strong> The creature is unaffected.\n<p><strong>Failure</strong> The creature falls @Compendium[pf2e.conditionitems.Prone]{Prone} atop the stone.</p>\n<p><strong>Critical Failure</strong> The creature falls off the stone (if applicable) and lands @Compendium[pf2e.conditionitems.Prone]{Prone}.</p>"
                },
                "duration": {
                    "value": ""
                },
                "hasCounteractCheck": {
                    "value": false
                },
                "level": {
                    "value": 4
                },
                "location": {
                    "value": "haoqhlEIkJbgiCyi"
                },
                "materials": {
                    "value": ""
                },
                "prepared": {
                    "value": ""
                },
                "range": {
                    "value": "touch"
                },
                "rules": [],
                "save": {
                    "basic": "",
                    "value": ""
                },
                "school": {
                    "value": "transmutation"
                },
                "slug": null,
                "source": {
                    "value": "https://2e.aonprd.com/Spells.aspx?ID=276"
                },
                "spellType": {
                    "value": "utility"
                },
                "sustained": {
                    "value": false
                },
                "target": {
                    "value": "cube of stone 10 feet across or smaller"
                },
                "time": {
                    "value": "2"
                },
                "traditions": {
                    "value": [
                        "arcane",
                        "primal"
                    ]
                },
                "traits": {
                    "custom": "",
                    "rarity": {
                        "value": "common"
                    },
                    "value": [
                        "earth"
                    ]
                }
            },
            "effects": [],
            "flags": {},
            "img": "systems/pf2e/icons/spells/shape-stone.webp",
            "name": "Shape Stone (at will)",
            "sort": 600000,
            "type": "spell"
        },
        {
            "_id": "Bv7E6Ip4ZhB1GCjP",
            "data": {
                "ability": {
                    "value": ""
                },
                "area": {
                    "areaType": "burst",
                    "value": 10
                },
                "autoHeightenLevel": {
                    "value": null
                },
                "category": {
                    "value": "spell"
                },
                "components": {
                    "focus": false,
                    "material": false,
                    "somatic": true,
                    "verbal": true
                },
                "cost": {
                    "value": ""
                },
                "damage": {
                    "value": {}
                },
                "description": {
                    "value": "<p>Creatures in the area are outlined by glittering dust. Each creature must attempt a Reflex save. If a creature has its invisibility negated by this spell, it is concealed instead of invisible. This applies both if the creature was already invisible and if it benefits from new invisibility effects before the end of the invisibility negation effect from this spell.</p>\n<hr /><strong>Critical Success</strong> The target is unaffected.\n<p><strong>Success</strong> The target's invisibility is negated for 2 rounds.</p>\n<p><strong>Failure</strong> The target is @Compendium[pf2e.conditionitems.Dazzled]{Dazzled} for 1 minute and its invisibility is negated for 1 minute.</p>\n<p><strong>Critical Failure</strong> The target is @Compendium[pf2e.conditionitems.Blinded]{Blinded} for 1 round and @Compendium[pf2e.conditionitems.Dazzled]{Dazzled} for 10 minutes. Its invisibility is negated for 10 minutes.</p>"
                },
                "duration": {
                    "value": ""
                },
                "hasCounteractCheck": {
                    "value": false
                },
                "level": {
                    "value": 2
                },
                "location": {
                    "value": "haoqhlEIkJbgiCyi"
                },
                "materials": {
                    "value": ""
                },
                "prepared": {
                    "value": ""
                },
                "range": {
                    "value": "120 feet"
                },
                "rules": [],
                "save": {
                    "basic": "",
                    "value": "reflex"
                },
                "school": {
                    "value": "evocation"
                },
                "slug": null,
                "source": {
                    "value": "https://2e.aonprd.com/Spells.aspx?ID=136"
                },
                "spellType": {
                    "value": "save"
                },
                "sustained": {
                    "value": false
                },
                "target": {
                    "value": ""
                },
                "time": {
                    "value": "2"
                },
                "traditions": {
                    "value": [
                        "arcane",
                        "primal"
                    ]
                },
                "traits": {
                    "custom": "",
                    "rarity": {
                        "value": "common"
                    },
                    "value": []
                }
            },
            "effects": [],
            "flags": {},
            "img": "systems/pf2e/icons/spells/glitterdust.webp",
            "name": "Glitterdust",
            "sort": 700000,
            "type": "spell"
        },
        {
            "_id": "c1SZkLauOGHBOmj5",
            "data": {
                "ability": {
                    "value": ""
                },
                "area": {
                    "areaType": "burst",
                    "value": 10
                },
                "autoHeightenLevel": {
                    "value": null
                },
                "category": {
                    "value": "spell"
                },
                "components": {
                    "focus": false,
                    "material": false,
                    "somatic": true,
                    "verbal": true
                },
                "cost": {
                    "value": ""
                },
                "damage": {
                    "value": {}
                },
                "description": {
                    "value": "<p>Creatures in the area are outlined by glittering dust. Each creature must attempt a Reflex save. If a creature has its invisibility negated by this spell, it is concealed instead of invisible. This applies both if the creature was already invisible and if it benefits from new invisibility effects before the end of the invisibility negation effect from this spell.</p>\n<hr /><strong>Critical Success</strong> The target is unaffected.\n<p><strong>Success</strong> The target's invisibility is negated for 2 rounds.</p>\n<p><strong>Failure</strong> The target is @Compendium[pf2e.conditionitems.Dazzled]{Dazzled} for 1 minute and its invisibility is negated for 1 minute.</p>\n<p><strong>Critical Failure</strong> The target is @Compendium[pf2e.conditionitems.Blinded]{Blinded} for 1 round and @Compendium[pf2e.conditionitems.Dazzled]{Dazzled} for 10 minutes. Its invisibility is negated for 10 minutes.</p>"
                },
                "duration": {
                    "value": ""
                },
                "hasCounteractCheck": {
                    "value": false
                },
                "level": {
                    "value": 2
                },
                "location": {
                    "value": "haoqhlEIkJbgiCyi"
                },
                "materials": {
                    "value": ""
                },
                "prepared": {
                    "value": ""
                },
                "range": {
                    "value": "120 feet"
                },
                "rules": [],
                "save": {
                    "basic": "",
                    "value": "reflex"
                },
                "school": {
                    "value": "evocation"
                },
                "slug": null,
                "source": {
                    "value": "https://2e.aonprd.com/Spells.aspx?ID=136"
                },
                "spellType": {
                    "value": "save"
                },
                "sustained": {
                    "value": false
                },
                "target": {
                    "value": ""
                },
                "time": {
                    "value": "2"
                },
                "traditions": {
                    "value": [
                        "arcane",
                        "primal"
                    ]
                },
                "traits": {
                    "custom": "",
                    "rarity": {
                        "value": "common"
                    },
                    "value": []
                }
            },
            "effects": [],
            "flags": {},
            "img": "systems/pf2e/icons/spells/glitterdust.webp",
            "name": "Glitterdust",
            "sort": 800000,
            "type": "spell"
        },
        {
            "_id": "yJr8tIsX9xMIC2qD",
            "data": {
                "baseItem": null,
                "brokenThreshold": {
                    "value": 0
                },
                "bulkCapacity": {
                    "value": ""
                },
                "collapsed": {
                    "value": false
                },
                "containerId": {
                    "value": ""
                },
                "description": {
                    "value": ""
                },
                "equipped": {
                    "value": false
                },
                "equippedBulk": {
                    "value": ""
                },
                "hardness": {
                    "value": 0
                },
                "hp": {
                    "value": 0
                },
                "identification": {
                    "misidentified": {},
                    "status": "identified",
                    "unidentified": {
                        "data": {
                            "description": {
                                "value": ""
                            }
                        },
                        "img": "",
                        "name": ""
                    }
                },
                "invested": {
                    "value": false
                },
                "level": {
                    "value": 0
                },
                "maxHp": {
                    "value": 0
                },
                "negateBulk": {
                    "value": "0"
                },
                "preciousMaterial": {
                    "value": ""
                },
                "preciousMaterialGrade": {
                    "value": ""
                },
                "price": {
                    "value": "0 gp"
                },
                "quantity": {
                    "value": 1
                },
                "rules": [],
                "size": {
                    "value": "med"
                },
                "slug": null,
                "source": {
                    "value": ""
                },
                "stackGroup": {
                    "value": ""
                },
                "traits": {
                    "custom": "",
                    "rarity": {
                        "value": "common"
                    },
                    "value": []
                },
                "usage": {
                    "value": "held-in-one-hand"
                },
                "weight": {
                    "value": 0
                }
            },
            "effects": [],
            "flags": {},
            "img": "systems/pf2e/icons/default-icons/mystery-man.svg",
            "name": "+1 falchion",
            "sort": 900000,
            "type": "equipment"
        },
        {
            "_id": "8B4xwRLas4rp2NnR",
            "data": {
                "attack": {
                    "value": ""
                },
                "attackEffects": {
                    "value": []
                },
                "bonus": {
                    "value": 1
                },
                "damageRolls": {
                    "41yr6806a8r1y2k0be3a": {
                        "damage": "1d10+12",
                        "damageType": "slashing"
                    }
                },
                "description": {
                    "value": ""
                },
                "rules": [],
                "slug": null,
                "source": {
                    "value": ""
                },
                "traits": {
                    "custom": "",
                    "rarity": {
                        "value": "common"
                    },
                    "value": []
                },
                "weaponType": {
                    "value": "melee"
                }
            },
            "effects": [],
            "flags": {},
            "img": "systems/pf2e/icons/default-icons/melee.svg",
            "name": "Falchion +20 (forceful",
            "sort": 1000000,
            "type": "melee"
        },
        {
            "_id": "zxrTBcJcqEnRKZyA",
            "data": {
                "attack": {
                    "value": ""
                },
                "attackEffects": {
                    "value": []
                },
                "bonus": {
                    "value": 19
                },
                "damageRolls": {
                    "41y9ybba8igtei16vf9i": {
                        "damage": "1d4+12",
                        "damageType": "bludgeoning"
                    }
                },
                "description": {
                    "value": "<p>(agile, magical, nonlethal, reach 10 feet)</p>"
                },
                "rules": [],
                "slug": null,
                "source": {
                    "value": ""
                },
                "traits": {
                    "custom": "",
                    "rarity": {
                        "value": "common"
                    },
                    "value": [
                        "agile",
                        "magical",
                        "nonlethal",
                        "reach-10"
                    ]
                },
                "weaponType": {
                    "value": "melee"
                }
            },
            "effects": [],
            "flags": {},
            "img": "systems/pf2e/icons/default-icons/melee.svg",
            "name": "Fist",
            "sort": 1100000,
            "type": "melee"
        },
        {
            "_id": "ztr88bB5WvLP8Ykt",
            "data": {
                "actionCategory": {
                    "value": "offensive"
                },
                "actionType": {
                    "value": "passive"
                },
                "actions": {
                    "value": null
                },
                "description": {
                    "value": "<p>The shaitan can Burrow through dirt and stone at its full burrow Speed, leaving no tunnels or signs of its passing.</p>"
                },
                "requirements": {
                    "value": ""
                },
                "rules": [],
                "slug": null,
                "source": {
                    "value": ""
                },
                "traits": {
                    "custom": "",
                    "rarity": {
                        "value": "common"
                    },
                    "value": []
                },
                "trigger": {
                    "value": ""
                },
                "weapon": {
                    "value": ""
                }
            },
            "effects": [],
            "flags": {},
            "img": "systems/pf2e/icons/actions/Passive.webp",
            "name": "Earth Glide",
            "sort": 1200000,
            "type": "action"
        },
        {
            "_id": "d8HnQHeqQlzrKyFt",
            "data": {
                "actionCategory": {
                    "value": "offensive"
                },
                "actionType": {
                    "value": "passive"
                },
                "actions": {
                    "value": null
                },
                "description": {
                    "value": "<p>When the shaitan Pushes a creature into a stone barrier, the target must succeed at a <span data-pf2-check=\"reflex\" data-pf2-dc=\"22\" data-pf2-traits=\"arcane,earth,transmutation\" data-pf2-label=\"Shove into Stone DC\" data-pf2-show-dc=\"gm\">Reflex</span> save or become merged with the barrier (as <i>meld with stone</i>). The victim can attempt to Escape (DC 28).</p>"
                },
                "requirements": {
                    "value": ""
                },
                "rules": [],
                "slug": null,
                "source": {
                    "value": ""
                },
                "traits": {
                    "custom": "",
                    "rarity": {
                        "value": "common"
                    },
                    "value": [
                        "arcane",
                        "earth",
                        "transmutation"
                    ]
                },
                "trigger": {
                    "value": ""
                },
                "weapon": {
                    "value": ""
                }
            },
            "effects": [],
            "flags": {},
            "img": "systems/pf2e/icons/default-icons/mystery-man.svg",
            "name": "Shove into Stone",
            "sort": 1300000,
            "type": "action"
        },
        {
            "_id": "miWk9y9SCX4vfr8H",
            "data": {
                "description": {
                    "value": ""
                },
                "item": {
                    "value": 0
                },
                "mod": {
                    "value": 19
                },
                "proficient": {
                    "value": 0
                },
                "rules": [],
                "slug": null,
                "source": {
                    "value": ""
                },
                "traits": {
                    "custom": "",
                    "rarity": {
                        "value": "common"
                    },
                    "value": []
                }
            },
            "effects": [],
            "flags": {},
            "img": "systems/pf2e/icons/default-icons/lore.svg",
            "name": "Athletics",
            "sort": 1400000,
            "type": "lore"
        },
        {
            "_id": "LRvAX6xB9oVYgZ8W",
            "data": {
                "description": {
                    "value": ""
                },
                "item": {
                    "value": 0
                },
                "mod": {
                    "value": 14
                },
                "proficient": {
                    "value": 0
                },
                "rules": [],
                "slug": null,
                "source": {
                    "value": ""
                },
                "traits": {
                    "custom": "",
                    "rarity": {
                        "value": "common"
                    },
                    "value": []
                }
            },
            "effects": [],
            "flags": {},
            "img": "systems/pf2e/icons/default-icons/lore.svg",
            "name": "Crafting",
            "sort": 1500000,
            "type": "lore"
        },
        {
            "_id": "zglneKSfz7Dd8Pwb",
            "data": {
                "description": {
                    "value": ""
                },
                "item": {
                    "value": 0
                },
                "mod": {
                    "value": 16
                },
                "proficient": {
                    "value": 0
                },
                "rules": [],
                "slug": null,
                "source": {
                    "value": ""
                },
                "traits": {
                    "custom": "",
                    "rarity": {
                        "value": "common"
                    },
                    "value": []
                }
            },
            "effects": [],
            "flags": {},
            "img": "systems/pf2e/icons/default-icons/lore.svg",
            "name": "Deception",
            "sort": 1600000,
            "type": "lore"
        },
        {
            "_id": "9R2dbddLJVPH8x51",
            "data": {
                "description": {
                    "value": ""
                },
                "item": {
                    "value": 0
                },
                "mod": {
                    "value": 15
                },
                "proficient": {
                    "value": 0
                },
                "rules": [],
                "slug": null,
                "source": {
                    "value": ""
                },
                "traits": {
                    "custom": "",
                    "rarity": {
                        "value": "common"
                    },
                    "value": []
                }
            },
            "effects": [],
            "flags": {},
            "img": "systems/pf2e/icons/default-icons/lore.svg",
            "name": "Nature",
            "sort": 1700000,
            "type": "lore"
        },
        {
            "_id": "BMol0i3G1uTIk2DX",
            "data": {
                "description": {
                    "value": ""
                },
                "item": {
                    "value": 0
                },
                "mod": {
                    "value": 14
                },
                "proficient": {
                    "value": 0
                },
                "rules": [],
                "slug": null,
                "source": {
                    "value": ""
                },
                "traits": {
                    "custom": "",
                    "rarity": {
                        "value": "common"
                    },
                    "value": []
                }
            },
            "effects": [],
            "flags": {},
            "img": "systems/pf2e/icons/default-icons/lore.svg",
            "name": "Society",
            "sort": 1800000,
            "type": "lore"
        }
    ],
    "name": "Shaitan",
    "token": {
        "disposition": -1,
        "height": 2,
        "img": "systems/pf2e/icons/default-icons/npc.svg",
        "name": "Shaitan",
        "width": 2
    },
    "type": "npc"
}
